%!PS-Adobe-3.0
%%BoundingBox: 18 36 594 756
%%Title: Enscript Output
%%Creator: GNU Enscript 1.6.5.90
%%CreationDate: Mon May 13 12:24:35 2013
%%Orientation: Portrait
%%Pages: (atend)
%%DocumentMedia: Letter 612 792 0 () ()
%%DocumentNeededResources: (atend)
%%EndComments
%%BeginProlog
%%BeginResource: procset Enscript-Prolog 1.6.5 90
%
% Procedures.
%

/_S {	% save current state
  /_s save def
} def
/_R {	% restore from saved state
  _s restore
} def

/S {	% showpage protecting gstate
  gsave
  showpage
  grestore
} bind def

/MF {	% fontname newfontname -> -	make a new encoded font
  /newfontname exch def
  /fontname exch def

  /fontdict fontname findfont def
  /newfont fontdict maxlength dict def

  fontdict {
    exch
    dup /FID eq {
      % skip FID pair
      pop pop
    } {
      % copy to the new font dictionary
      exch newfont 3 1 roll put
    } ifelse
  } forall

  newfont /FontName newfontname put

  % insert only valid encoding vectors
  encoding_vector length 256 eq {
    newfont /Encoding encoding_vector put
  } if

  newfontname newfont definefont pop
} def

/MF_PS { % fontname newfontname -> -	make a new font preserving its enc
  /newfontname exch def
  /fontname exch def

  /fontdict fontname findfont def
  /newfont fontdict maxlength dict def

  fontdict {
    exch
    dup /FID eq {
      % skip FID pair
      pop pop
    } {
      % copy to the new font dictionary
      exch newfont 3 1 roll put
    } ifelse
  } forall

  newfont /FontName newfontname put

  newfontname newfont definefont pop
} def

/SF { % fontname width height -> -	set a new font
  /height exch def
  /width exch def

  findfont
  [width 0 0 height 0 0] makefont setfont
} def

/SUF { % fontname width height -> -	set a new user font
  /height exch def
  /width exch def

  /F-gs-user-font MF
  /F-gs-user-font width height SF
} def

/SUF_PS { % fontname width height -> -	set a new user font preserving its enc
  /height exch def
  /width exch def

  /F-gs-user-font MF_PS
  /F-gs-user-font width height SF
} def

/M {moveto} bind def
/s {show} bind def

/Box {	% x y w h -> -			define box path
  /d_h exch def /d_w exch def /d_y exch def /d_x exch def
  d_x d_y  moveto
  d_w 0 rlineto
  0 d_h rlineto
  d_w neg 0 rlineto
  closepath
} def

/bgs {	% x y height blskip gray str -> -	show string with bg color
  /str exch def
  /gray exch def
  /blskip exch def
  /height exch def
  /y exch def
  /x exch def

  gsave
    x y blskip sub str stringwidth pop height Box
    gray setgray
    fill
  grestore
  x y M str s
} def

/bgcs { % x y height blskip red green blue str -> -  show string with bg color
  /str exch def
  /blue exch def
  /green exch def
  /red exch def
  /blskip exch def
  /height exch def
  /y exch def
  /x exch def

  gsave
    x y blskip sub str stringwidth pop height Box
    red green blue setrgbcolor
    fill
  grestore
  x y M str s
} def

% Highlight bars.
/highlight_bars {	% nlines lineheight output_y_margin gray -> -
  gsave
    setgray
    /ymarg exch def
    /lineheight exch def
    /nlines exch def

    % This 2 is just a magic number to sync highlight lines to text.
    0 d_header_y ymarg sub 2 sub translate

    /cw d_output_w cols div def
    /nrows d_output_h ymarg 2 mul sub lineheight div cvi def

    % for each column
    0 1 cols 1 sub {
      cw mul /xp exch def

      % for each rows
      0 1 nrows 1 sub {
        /rn exch def
        rn lineheight mul neg /yp exch def
        rn nlines idiv 2 mod 0 eq {
	  % Draw highlight bar.  4 is just a magic indentation.
	  xp 4 add yp cw 8 sub lineheight neg Box fill
	} if
      } for
    } for

  grestore
} def

% Line highlight bar.
/line_highlight {	% x y width height gray -> -
  gsave
    /gray exch def
    Box gray setgray fill
  grestore
} def

% Column separator lines.
/column_lines {
  gsave
    .1 setlinewidth
    0 d_footer_h translate
    /cw d_output_w cols div def
    1 1 cols 1 sub {
      cw mul 0 moveto
      0 d_output_h rlineto stroke
    } for
  grestore
} def

% Column borders.
/column_borders {
  gsave
    .1 setlinewidth
    0 d_footer_h moveto
    0 d_output_h rlineto
    d_output_w 0 rlineto
    0 d_output_h neg rlineto
    closepath stroke
  grestore
} def

% Do the actual underlay drawing
/draw_underlay {
  ul_style 0 eq {
    ul_str true charpath stroke
  } {
    ul_str show
  } ifelse
} def

% Underlay
/underlay {	% - -> -
  gsave
    0 d_page_h translate
    d_page_h neg d_page_w atan rotate

    ul_gray setgray
    ul_font setfont
    /dw d_page_h dup mul d_page_w dup mul add sqrt def
    ul_str stringwidth pop dw exch sub 2 div ul_h_ptsize -2 div moveto
    draw_underlay
  grestore
} def

/user_underlay {	% - -> -
  gsave
    ul_x ul_y translate
    ul_angle rotate
    ul_gray setgray
    ul_font setfont
    0 0 ul_h_ptsize 2 div sub moveto
    draw_underlay
  grestore
} def

% Page prefeed
/page_prefeed {		% bool -> -
  statusdict /prefeed known {
    statusdict exch /prefeed exch put
  } {
    pop
  } ifelse
} def

% Wrapped line markers
/wrapped_line_mark {	% x y charwith charheight type -> -
  /type exch def
  /h exch def
  /w exch def
  /y exch def
  /x exch def

  type 2 eq {
    % Black boxes (like TeX does)
    gsave
      0 setlinewidth
      x w 4 div add y M
      0 h rlineto w 2 div 0 rlineto 0 h neg rlineto
      closepath fill
    grestore
  } {
    type 3 eq {
      % Small arrows
      gsave
        .2 setlinewidth
        x w 2 div add y h 2 div add M
        w 4 div 0 rlineto
        x w 4 div add y lineto stroke

        x w 4 div add w 8 div add y h 4 div add M
        x w 4 div add y lineto
	w 4 div h 8 div rlineto stroke
      grestore
    } {
      % do nothing
    } ifelse
  } ifelse
} def

% EPSF import.

/BeginEPSF {
  /b4_Inc_state save def    		% Save state for cleanup
  /dict_count countdictstack def	% Count objects on dict stack
  /op_count count 1 sub def		% Count objects on operand stack
  userdict begin
  /showpage { } def
  0 setgray 0 setlinecap
  1 setlinewidth 0 setlinejoin
  10 setmiterlimit [ ] 0 setdash newpath
  /languagelevel where {
    pop languagelevel
    1 ne {
      false setstrokeadjust false setoverprint
    } if
  } if
} bind def

/EndEPSF {
  count op_count sub { pos } repeat	% Clean up stacks
  countdictstack dict_count sub { end } repeat
  b4_Inc_state restore
} bind def

% Check PostScript language level.
/languagelevel where {
  pop /gs_languagelevel languagelevel def
} {
  /gs_languagelevel 1 def
} ifelse
%%EndResource
%%BeginResource: procset Enscript-Encoding-88591 1.6.5 90
/encoding_vector [
/.notdef      	/.notdef      	/.notdef      	/.notdef      	
/.notdef      	/.notdef      	/.notdef      	/.notdef      	
/.notdef      	/.notdef      	/.notdef      	/.notdef      	
/.notdef      	/.notdef      	/.notdef      	/.notdef      	
/.notdef      	/.notdef      	/.notdef      	/.notdef      	
/.notdef      	/.notdef      	/.notdef      	/.notdef      	
/.notdef      	/.notdef      	/.notdef      	/.notdef      	
/.notdef      	/.notdef      	/.notdef      	/.notdef      	
/space        	/exclam       	/quotedbl     	/numbersign   	
/dollar       	/percent      	/ampersand    	/quoteright   	
/parenleft    	/parenright   	/asterisk     	/plus         	
/comma        	/hyphen       	/period       	/slash        	
/zero         	/one          	/two          	/three        	
/four         	/five         	/six          	/seven        	
/eight        	/nine         	/colon        	/semicolon    	
/less         	/equal        	/greater      	/question     	
/at           	/A            	/B            	/C            	
/D            	/E            	/F            	/G            	
/H            	/I            	/J            	/K            	
/L            	/M            	/N            	/O            	
/P            	/Q            	/R            	/S            	
/T            	/U            	/V            	/W            	
/X            	/Y            	/Z            	/bracketleft  	
/backslash    	/bracketright 	/asciicircum  	/underscore   	
/quoteleft    	/a            	/b            	/c            	
/d            	/e            	/f            	/g            	
/h            	/i            	/j            	/k            	
/l            	/m            	/n            	/o            	
/p            	/q            	/r            	/s            	
/t            	/u            	/v            	/w            	
/x            	/y            	/z            	/braceleft    	
/bar          	/braceright   	/tilde        	/.notdef      	
/.notdef      	/.notdef      	/.notdef      	/.notdef      	
/.notdef      	/.notdef      	/.notdef      	/.notdef      	
/.notdef      	/.notdef      	/.notdef      	/.notdef      	
/.notdef      	/.notdef      	/.notdef      	/.notdef      	
/.notdef      	/.notdef      	/.notdef      	/.notdef      	
/.notdef      	/.notdef      	/.notdef      	/.notdef      	
/.notdef      	/.notdef      	/.notdef      	/.notdef      	
/.notdef      	/.notdef      	/.notdef      	/.notdef      	
/space        	/exclamdown   	/cent         	/sterling     	
/currency     	/yen          	/brokenbar    	/section      	
/dieresis     	/copyright    	/ordfeminine  	/guillemotleft	
/logicalnot   	/hyphen       	/registered   	/macron       	
/degree       	/plusminus    	/twosuperior  	/threesuperior	
/acute        	/mu           	/paragraph    	/bullet       	
/cedilla      	/onesuperior  	/ordmasculine 	/guillemotright	
/onequarter   	/onehalf      	/threequarters	/questiondown 	
/Agrave       	/Aacute       	/Acircumflex  	/Atilde       	
/Adieresis    	/Aring        	/AE           	/Ccedilla     	
/Egrave       	/Eacute       	/Ecircumflex  	/Edieresis    	
/Igrave       	/Iacute       	/Icircumflex  	/Idieresis    	
/Eth          	/Ntilde       	/Ograve       	/Oacute       	
/Ocircumflex  	/Otilde       	/Odieresis    	/multiply     	
/Oslash       	/Ugrave       	/Uacute       	/Ucircumflex  	
/Udieresis    	/Yacute       	/Thorn        	/germandbls   	
/agrave       	/aacute       	/acircumflex  	/atilde       	
/adieresis    	/aring        	/ae           	/ccedilla     	
/egrave       	/eacute       	/ecircumflex  	/edieresis    	
/igrave       	/iacute       	/icircumflex  	/idieresis    	
/eth          	/ntilde       	/ograve       	/oacute       	
/ocircumflex  	/otilde       	/odieresis    	/divide       	
/oslash       	/ugrave       	/uacute       	/ucircumflex  	
/udieresis    	/yacute       	/thorn        	/ydieresis    	
] def
%%EndResource
%%EndProlog
%%BeginSetup
%%IncludeResource: font Courier-Bold
%%IncludeResource: font Courier
/HFpt_w 10 def
/HFpt_h 10 def
/Courier-Bold /HF-gs-font MF
/HF /HF-gs-font findfont [HFpt_w 0 0 HFpt_h 0 0] makefont def
/Courier /F-gs-font MF
/F-gs-font 10 10 SF
/#copies 1 def
% Pagedevice definitions:
gs_languagelevel 1 gt {
  <<
    /PageSize [612 792] 
  >> setpagedevice
} if
%%BeginResource: procset Enscript-Header-simple 1.6.5 90

/do_header {	% print default simple header
  gsave
    d_header_x d_header_y HFpt_h 3 div add translate

    HF setfont
    user_header_p {
      5 0 moveto user_header_left_str show

      d_header_w user_header_center_str stringwidth pop sub 2 div
      0 moveto user_header_center_str show

      d_header_w user_header_right_str stringwidth pop sub 5 sub
      0 moveto user_header_right_str show
    } {
      5 0 moveto fname show
      45 0 rmoveto fmodstr show
      45 0 rmoveto pagenumstr show
    } ifelse

  grestore
} def
%%EndResource
/d_page_w 576 def
/d_page_h 720 def
/d_header_x 0 def
/d_header_y 705 def
/d_header_w 576 def
/d_header_h 15 def
/d_footer_x 0 def
/d_footer_y 0 def
/d_footer_w 576 def
/d_footer_h 0 def
/d_output_w 576 def
/d_output_h 705 def
/cols 1 def
%%EndSetup
%%Page: (1) 1
%%BeginPageSetup
_S
18 36 translate
/pagenum 1 def
/fname (README) def
/fdir (.) def
/ftail (README) def
% User defined strings:
/fmodstr (Mon Mar 11 21:31:50 2013) def
/pagenumstr (1) def
/user_header_p false def
/user_footer_p false def
%%EndPageSetup
do_header
5 692 M
(bcorner) s
5 681 M
(Ben Corner) s
5 659 M
(MATH 382 -- HOMEWORK #2) s
5 626 M
(ITERATIVE MERGESORT:) s
5 604 M
(It works for inputs with length \(positive, integer\) power of 2. ) s
_R
S
%%Page: (1) 2
%%BeginPageSetup
_S
18 36 translate
/pagenum 1 def
/fname (hw2.scala) def
/fdir (.) def
/ftail (hw2.scala) def
% User defined strings:
/fmodstr (Mon May 13 12:21:55 2013) def
/pagenumstr (1) def
/user_header_p false def
/user_footer_p false def
%%EndPageSetup
do_header
5 692 M
(//   bcorner) s
5 681 M
(//   Ben Corner) s
5 670 M
(//   MATH382 -- HW #2) s
5 626 M
(object hw2 {) s
5 604 M
(    //) s
5 593 M
(    // itMergesort) s
5 582 M
(    //) s
5 571 M
(    // ) s
5 560 M
(    // ) s
5 549 M
(      ) s
5 538 M
(    def itMergesort\(a:Array[Int]\):Unit = {) s
5 527 M
(            ) s
5 516 M
(        val n:Int = a.length;) s
5 505 M
(        var i:Int = 1;) s
5 494 M
(        var j:Int = 0;) s
5 483 M
(            ) s
5 472 M
(        // "i" is the size of the subsections we're merging                          ) s
5 461 M
(        // Our variable "j" is the index of the first element                        ) s
5 450 M
(        //    of the current \(to-be-merged\) array subsection of size "i"             ) s
5 439 M
(        //    We increment by 2*i because each merge takes 2 subsections of size "i".) s
5 428 M
(        // merge subsection a[j:j+i-1] with a[j+i:j+2*i-1]                           ) s
5 417 M
(            ) s
5 395 M
(        while \(i < n\) {                         ) s
5 384 M
(            for \(j <- 0 until \(n-i\) by \(2*i\) \) {  ) s
5 373 M
(                                                        ) s
5 362 M
(                                                         ) s
5 351 M
(                merge\(a, j, j+i-1, j+2*i-1\);     ) s
5 340 M
(            }     ) s
5 329 M
(                  ) s
5 318 M
(            i = i*2;              ) s
5 307 M
(        }) s
5 296 M
(            ) s
5 285 M
(    }) s
5 219 M
(    //) s
5 208 M
(    // merge) s
5 197 M
(    //) s
5 186 M
(    // This procedure merges two sorted portions of an array, the) s
5 175 M
(    // elements in range p..q, and the elements in range q+1..r.  The) s
5 164 M
(    // resulting sorted values are put in the range p..r.  ) s
5 153 M
(    //) s
5 142 M
(    // It copies the two portions into arrays left and right in order) s
5 131 M
(    // to merge those values back into the combined portion in a.) s
5 120 M
(    // ) s
5 109 M
(    def merge\(a:Array[Int], p:Int, q:Int, r:Int\) {) s
5 98 M
(    ) s
5 87 M
(        // make a copy of the left half, with an) s
5 76 M
(        // aditional "sentinel" value of infinity.) s
5 65 M
(        // \(see CLRS page 31\).) s
5 54 M
(        //) s
5 43 M
(        val ln:Int = q - p + 1;) s
5 32 M
(        val left:Array[Int] = new Array[Int]\(ln+1\);) s
5 21 M
(    ) s
5 10 M
(        for \(i <- 0 until ln\) {) s
_R
S
%%Page: (2) 3
%%BeginPageSetup
_S
18 36 translate
/pagenum 2 def
/fname (hw2.scala) def
/fdir (.) def
/ftail (hw2.scala) def
% User defined strings:
/fmodstr (Mon May 13 12:21:55 2013) def
/pagenumstr (2) def
/user_header_p false def
/user_footer_p false def
%%EndPageSetup
do_header
5 692 M
(            left\(i\) = a\(p+i\);) s
5 681 M
(        }) s
5 670 M
(        left\(ln\) = Int.MaxValue;) s
5 659 M
(    ) s
5 648 M
(        // make a copy of the right half) s
5 637 M
(        val rn:Int = r - q;) s
5 626 M
(        val right:Array[Int] = new Array[Int]\(rn+1\);) s
5 615 M
(    ) s
5 604 M
(        for \(i <- 0 until rn\) {) s
5 593 M
(            right\(i\) = a\(q+1+i\);) s
5 582 M
(        }) s
5 571 M
(        right\(rn\) = Int.MaxValue;) s
5 560 M
(    ) s
5 549 M
(        var li:Int = 0;) s
5 538 M
(        var ri:Int = 0;) s
5 527 M
(        for \(i <- p to r\) {) s
5 516 M
(            if \(left\(li\) <= right\(ri\)\) {) s
5 505 M
(                a\(i\) = left\(li\);) s
5 494 M
(                li = li + 1;) s
5 483 M
(            } else {) s
5 472 M
(                a\(i\) = right\(ri\);) s
5 461 M
(                ri = ri + 1;) s
5 450 M
(            }) s
5 439 M
(        }) s
5 428 M
(    }) s
5 384 M
(  ) s
5 373 M
(    //) s
5 362 M
(    // main) s
5 351 M
(    //) s
5 340 M
(    // Tests insertion sort and merge sort.) s
5 329 M
(    //) s
5 318 M
(    def main\(args:Array[String]\):Unit = {) s
5 296 M
(        val ints:Array[Int] = new Array[Int]\(args.length\);) s
5 274 M
(        for \(i <- 0 until args.length\) {) s
5 263 M
(            ints\(i\) = args\(i\).toInt;) s
5 252 M
(        }) s
5 230 M
(        print\("BEFORE:"\)) s
5 219 M
(        for \(v <- ints\) {) s
5 208 M
(            print\(v + " "\);) s
5 197 M
(        }) s
5 186 M
(        println\(\);) s
5 164 M
(        // Test itMergesort) s
5 153 M
(        itMergesort\(ints\);) s
5 142 M
(      ) s
5 131 M
(        println\("AFTER ITMERGESORT:"\)) s
5 120 M
(        for \(v <- ints\) {) s
5 109 M
(            print\(v + " "\);) s
5 98 M
(        }) s
5 87 M
(        println\(\);) s
5 65 M
(    }) s
5 54 M
(}) s
5 43 M
(      ) s
_R
S
%%Page: (1) 4
%%BeginPageSetup
_S
18 36 translate
/pagenum 1 def
/fname (tests.txt) def
/fdir (.) def
/ftail (tests.txt) def
% User defined strings:
/fmodstr (Mon Mar 11 21:31:50 2013) def
/pagenumstr (1) def
/user_header_p false def
/user_footer_p false def
%%EndPageSetup
do_header
5 692 M
(BEFORE:5 2 9 6 5 1 8 4 ) s
5 681 M
(AFTER ITMERGESORT:) s
5 670 M
(1 2 4 5 5 6 8 9 ) s
5 659 M
(BEFORE:1 1 1 1 0 0 0 0 ) s
5 648 M
(AFTER ITMERGESORT:) s
5 637 M
(0 0 0 0 1 1 1 1 ) s
5 626 M
(BEFORE:1 1 1 1 1 1 1 1 ) s
5 615 M
(AFTER ITMERGESORT:) s
5 604 M
(1 1 1 1 1 1 1 1 ) s
5 593 M
(BEFORE:) s
5 582 M
(AFTER ITMERGESORT:) s
5 560 M
(BEFORE:1 2 ) s
5 549 M
(AFTER ITMERGESORT:) s
5 538 M
(1 2 ) s
5 527 M
(BEFORE:7 8 5 6 3 4 1 2 ) s
5 516 M
(AFTER ITMERGESORT:) s
5 505 M
(1 2 3 4 5 6 7 8 ) s
5 494 M
(BEFORE:0 1 0 1 2 3 2 3 ) s
5 483 M
(AFTER ITMERGESORT:) s
5 472 M
(0 0 1 1 2 2 3 3 ) s
5 461 M
(BEFORE:1 3 1 3 2 4 2 4 ) s
5 450 M
(AFTER ITMERGESORT:) s
5 439 M
(1 1 2 2 3 3 4 4 ) s
5 428 M
(BEFORE:8 7 6 5 4 3 2 ) s
_R
S
%%Trailer
%%Pages: 4
%%DocumentNeededResources: font Courier-Bold Courier 
%%EOF
