%!PS-Adobe-3.0
%%BoundingBox: 18 36 594 756
%%Title: Enscript Output
%%Creator: GNU Enscript 1.6.5.90
%%CreationDate: Wed Jan 30 09:29:25 2013
%%Orientation: Landscape
%%Pages: (atend)
%%DocumentMedia: Letter 612 792 0 () ()
%%DocumentNeededResources: (atend)
%%EndComments
%%BeginProlog
%%BeginResource: procset Enscript-Prolog 1.6.5 90
%
% Procedures.
%

/_S {	% save current state
  /_s save def
} def
/_R {	% restore from saved state
  _s restore
} def

/S {	% showpage protecting gstate
  gsave
  showpage
  grestore
} bind def

/MF {	% fontname newfontname -> -	make a new encoded font
  /newfontname exch def
  /fontname exch def

  /fontdict fontname findfont def
  /newfont fontdict maxlength dict def

  fontdict {
    exch
    dup /FID eq {
      % skip FID pair
      pop pop
    } {
      % copy to the new font dictionary
      exch newfont 3 1 roll put
    } ifelse
  } forall

  newfont /FontName newfontname put

  % insert only valid encoding vectors
  encoding_vector length 256 eq {
    newfont /Encoding encoding_vector put
  } if

  newfontname newfont definefont pop
} def

/MF_PS { % fontname newfontname -> -	make a new font preserving its enc
  /newfontname exch def
  /fontname exch def

  /fontdict fontname findfont def
  /newfont fontdict maxlength dict def

  fontdict {
    exch
    dup /FID eq {
      % skip FID pair
      pop pop
    } {
      % copy to the new font dictionary
      exch newfont 3 1 roll put
    } ifelse
  } forall

  newfont /FontName newfontname put

  newfontname newfont definefont pop
} def

/SF { % fontname width height -> -	set a new font
  /height exch def
  /width exch def

  findfont
  [width 0 0 height 0 0] makefont setfont
} def

/SUF { % fontname width height -> -	set a new user font
  /height exch def
  /width exch def

  /F-gs-user-font MF
  /F-gs-user-font width height SF
} def

/SUF_PS { % fontname width height -> -	set a new user font preserving its enc
  /height exch def
  /width exch def

  /F-gs-user-font MF_PS
  /F-gs-user-font width height SF
} def

/M {moveto} bind def
/s {show} bind def

/Box {	% x y w h -> -			define box path
  /d_h exch def /d_w exch def /d_y exch def /d_x exch def
  d_x d_y  moveto
  d_w 0 rlineto
  0 d_h rlineto
  d_w neg 0 rlineto
  closepath
} def

/bgs {	% x y height blskip gray str -> -	show string with bg color
  /str exch def
  /gray exch def
  /blskip exch def
  /height exch def
  /y exch def
  /x exch def

  gsave
    x y blskip sub str stringwidth pop height Box
    gray setgray
    fill
  grestore
  x y M str s
} def

/bgcs { % x y height blskip red green blue str -> -  show string with bg color
  /str exch def
  /blue exch def
  /green exch def
  /red exch def
  /blskip exch def
  /height exch def
  /y exch def
  /x exch def

  gsave
    x y blskip sub str stringwidth pop height Box
    red green blue setrgbcolor
    fill
  grestore
  x y M str s
} def

% Highlight bars.
/highlight_bars {	% nlines lineheight output_y_margin gray -> -
  gsave
    setgray
    /ymarg exch def
    /lineheight exch def
    /nlines exch def

    % This 2 is just a magic number to sync highlight lines to text.
    0 d_header_y ymarg sub 2 sub translate

    /cw d_output_w cols div def
    /nrows d_output_h ymarg 2 mul sub lineheight div cvi def

    % for each column
    0 1 cols 1 sub {
      cw mul /xp exch def

      % for each rows
      0 1 nrows 1 sub {
        /rn exch def
        rn lineheight mul neg /yp exch def
        rn nlines idiv 2 mod 0 eq {
	  % Draw highlight bar.  4 is just a magic indentation.
	  xp 4 add yp cw 8 sub lineheight neg Box fill
	} if
      } for
    } for

  grestore
} def

% Line highlight bar.
/line_highlight {	% x y width height gray -> -
  gsave
    /gray exch def
    Box gray setgray fill
  grestore
} def

% Column separator lines.
/column_lines {
  gsave
    .1 setlinewidth
    0 d_footer_h translate
    /cw d_output_w cols div def
    1 1 cols 1 sub {
      cw mul 0 moveto
      0 d_output_h rlineto stroke
    } for
  grestore
} def

% Column borders.
/column_borders {
  gsave
    .1 setlinewidth
    0 d_footer_h moveto
    0 d_output_h rlineto
    d_output_w 0 rlineto
    0 d_output_h neg rlineto
    closepath stroke
  grestore
} def

% Do the actual underlay drawing
/draw_underlay {
  ul_style 0 eq {
    ul_str true charpath stroke
  } {
    ul_str show
  } ifelse
} def

% Underlay
/underlay {	% - -> -
  gsave
    0 d_page_h translate
    d_page_h neg d_page_w atan rotate

    ul_gray setgray
    ul_font setfont
    /dw d_page_h dup mul d_page_w dup mul add sqrt def
    ul_str stringwidth pop dw exch sub 2 div ul_h_ptsize -2 div moveto
    draw_underlay
  grestore
} def

/user_underlay {	% - -> -
  gsave
    ul_x ul_y translate
    ul_angle rotate
    ul_gray setgray
    ul_font setfont
    0 0 ul_h_ptsize 2 div sub moveto
    draw_underlay
  grestore
} def

% Page prefeed
/page_prefeed {		% bool -> -
  statusdict /prefeed known {
    statusdict exch /prefeed exch put
  } {
    pop
  } ifelse
} def

% Wrapped line markers
/wrapped_line_mark {	% x y charwith charheight type -> -
  /type exch def
  /h exch def
  /w exch def
  /y exch def
  /x exch def

  type 2 eq {
    % Black boxes (like TeX does)
    gsave
      0 setlinewidth
      x w 4 div add y M
      0 h rlineto w 2 div 0 rlineto 0 h neg rlineto
      closepath fill
    grestore
  } {
    type 3 eq {
      % Small arrows
      gsave
        .2 setlinewidth
        x w 2 div add y h 2 div add M
        w 4 div 0 rlineto
        x w 4 div add y lineto stroke

        x w 4 div add w 8 div add y h 4 div add M
        x w 4 div add y lineto
	w 4 div h 8 div rlineto stroke
      grestore
    } {
      % do nothing
    } ifelse
  } ifelse
} def

% EPSF import.

/BeginEPSF {
  /b4_Inc_state save def    		% Save state for cleanup
  /dict_count countdictstack def	% Count objects on dict stack
  /op_count count 1 sub def		% Count objects on operand stack
  userdict begin
  /showpage { } def
  0 setgray 0 setlinecap
  1 setlinewidth 0 setlinejoin
  10 setmiterlimit [ ] 0 setdash newpath
  /languagelevel where {
    pop languagelevel
    1 ne {
      false setstrokeadjust false setoverprint
    } if
  } if
} bind def

/EndEPSF {
  count op_count sub { pos } repeat	% Clean up stacks
  countdictstack dict_count sub { end } repeat
  b4_Inc_state restore
} bind def

% Check PostScript language level.
/languagelevel where {
  pop /gs_languagelevel languagelevel def
} {
  /gs_languagelevel 1 def
} ifelse
%%EndResource
%%BeginResource: procset Enscript-Encoding-88591 1.6.5 90
/encoding_vector [
/.notdef      	/.notdef      	/.notdef      	/.notdef      	
/.notdef      	/.notdef      	/.notdef      	/.notdef      	
/.notdef      	/.notdef      	/.notdef      	/.notdef      	
/.notdef      	/.notdef      	/.notdef      	/.notdef      	
/.notdef      	/.notdef      	/.notdef      	/.notdef      	
/.notdef      	/.notdef      	/.notdef      	/.notdef      	
/.notdef      	/.notdef      	/.notdef      	/.notdef      	
/.notdef      	/.notdef      	/.notdef      	/.notdef      	
/space        	/exclam       	/quotedbl     	/numbersign   	
/dollar       	/percent      	/ampersand    	/quoteright   	
/parenleft    	/parenright   	/asterisk     	/plus         	
/comma        	/hyphen       	/period       	/slash        	
/zero         	/one          	/two          	/three        	
/four         	/five         	/six          	/seven        	
/eight        	/nine         	/colon        	/semicolon    	
/less         	/equal        	/greater      	/question     	
/at           	/A            	/B            	/C            	
/D            	/E            	/F            	/G            	
/H            	/I            	/J            	/K            	
/L            	/M            	/N            	/O            	
/P            	/Q            	/R            	/S            	
/T            	/U            	/V            	/W            	
/X            	/Y            	/Z            	/bracketleft  	
/backslash    	/bracketright 	/asciicircum  	/underscore   	
/quoteleft    	/a            	/b            	/c            	
/d            	/e            	/f            	/g            	
/h            	/i            	/j            	/k            	
/l            	/m            	/n            	/o            	
/p            	/q            	/r            	/s            	
/t            	/u            	/v            	/w            	
/x            	/y            	/z            	/braceleft    	
/bar          	/braceright   	/tilde        	/.notdef      	
/.notdef      	/.notdef      	/.notdef      	/.notdef      	
/.notdef      	/.notdef      	/.notdef      	/.notdef      	
/.notdef      	/.notdef      	/.notdef      	/.notdef      	
/.notdef      	/.notdef      	/.notdef      	/.notdef      	
/.notdef      	/.notdef      	/.notdef      	/.notdef      	
/.notdef      	/.notdef      	/.notdef      	/.notdef      	
/.notdef      	/.notdef      	/.notdef      	/.notdef      	
/.notdef      	/.notdef      	/.notdef      	/.notdef      	
/space        	/exclamdown   	/cent         	/sterling     	
/currency     	/yen          	/brokenbar    	/section      	
/dieresis     	/copyright    	/ordfeminine  	/guillemotleft	
/logicalnot   	/hyphen       	/registered   	/macron       	
/degree       	/plusminus    	/twosuperior  	/threesuperior	
/acute        	/mu           	/paragraph    	/bullet       	
/cedilla      	/onesuperior  	/ordmasculine 	/guillemotright	
/onequarter   	/onehalf      	/threequarters	/questiondown 	
/Agrave       	/Aacute       	/Acircumflex  	/Atilde       	
/Adieresis    	/Aring        	/AE           	/Ccedilla     	
/Egrave       	/Eacute       	/Ecircumflex  	/Edieresis    	
/Igrave       	/Iacute       	/Icircumflex  	/Idieresis    	
/Eth          	/Ntilde       	/Ograve       	/Oacute       	
/Ocircumflex  	/Otilde       	/Odieresis    	/multiply     	
/Oslash       	/Ugrave       	/Uacute       	/Ucircumflex  	
/Udieresis    	/Yacute       	/Thorn        	/germandbls   	
/agrave       	/aacute       	/acircumflex  	/atilde       	
/adieresis    	/aring        	/ae           	/ccedilla     	
/egrave       	/eacute       	/ecircumflex  	/edieresis    	
/igrave       	/iacute       	/icircumflex  	/idieresis    	
/eth          	/ntilde       	/ograve       	/oacute       	
/ocircumflex  	/otilde       	/odieresis    	/divide       	
/oslash       	/ugrave       	/uacute       	/ucircumflex  	
/udieresis    	/yacute       	/thorn        	/ydieresis    	
] def
%%EndResource
%%EndProlog
%%BeginSetup
%%IncludeResource: font Courier-Bold
%%IncludeResource: font Courier
/HFpt_w 10 def
/HFpt_h 10 def
/Courier-Bold /HF-gs-font MF
/HF /HF-gs-font findfont [HFpt_w 0 0 HFpt_h 0 0] makefont def
/Courier /F-gs-font MF
/F-gs-font 10 10 SF
/#copies 1 def
% Pagedevice definitions:
gs_languagelevel 1 gt {
  <<
    /PageSize [612 792] 
  >> setpagedevice
} if
%%BeginResource: procset Enscript-Header-simple 1.6.5 90

/do_header {	% print default simple header
  gsave
    d_header_x d_header_y HFpt_h 3 div add translate

    HF setfont
    user_header_p {
      5 0 moveto user_header_left_str show

      d_header_w user_header_center_str stringwidth pop sub 2 div
      0 moveto user_header_center_str show

      d_header_w user_header_right_str stringwidth pop sub 5 sub
      0 moveto user_header_right_str show
    } {
      5 0 moveto fname show
      45 0 rmoveto fmodstr show
      45 0 rmoveto pagenumstr show
    } ifelse

  grestore
} def
%%EndResource
/d_page_w 720 def
/d_page_h 576 def
/d_header_x 0 def
/d_header_y 561 def
/d_header_w 720 def
/d_header_h 15 def
/d_footer_x 0 def
/d_footer_y 0 def
/d_footer_w 720 def
/d_footer_h 0 def
/d_output_w 720 def
/d_output_h 561 def
/cols 1 def
%%EndSetup
%%Page: (1) 1
%%BeginPageSetup
_S
90 rotate
36 -594 translate
/pagenum 1 def
/fname (lec1_2.scala) def
/fdir (.) def
/ftail (lec1_2.scala) def
% User defined strings:
/fmodstr (Wed Jan 30 09:21:13 2013) def
/pagenumstr (1) def
/user_header_p false def
/user_footer_p false def
%%EndPageSetup
do_header
5 537 M
(object lec1_2 {) s
5 515 M
(  //) s
5 504 M
(  // insertionSort) s
5 493 M
(  // ) s
5 482 M
(  // Sorts an array of integers using insertion sort.) s
5 471 M
(  //) s
5 460 M
(  // This code is nearly the same as CLRS 2.1 page 18,) s
5 449 M
(  // except the index set of a scala array of length n ) s
5 438 M
(  // is {0,...,n-1} rather than {1,...,n}.  Also, in) s
5 427 M
(  // the inner loop I've made position i the target of ) s
5 416 M
(  // the insertion \(rather than i+1\).) s
5 405 M
(  //) s
5 394 M
(  def insertionSort\(a:Array[Int]\):Unit = {) s
5 383 M
(    val n:Int = a.length;) s
5 361 M
(    // for each position i) s
5 350 M
(    for \(j <- 1 to n-1\) {) s
5 328 M
(      // insert a[j] into a[0..j] by finding its place i) s
5 317 M
(      val key:Int = a\(j\);) s
5 306 M
(      var i:Int = j;) s
5 284 M
(      // scan left past values greater than a[i]) s
5 273 M
(      while \(i > 0 && a\(i-1\) > key\) {) s
5 262 M
(        // shifting each such value one place right) s
5 251 M
(        a\(i\) = a\(i-1\);) s
5 240 M
(        i = i-1;) s
5 229 M
(      }) s
5 207 M
(      // place a[j] at position i) s
5 196 M
(      a\(i\) = key;) s
5 185 M
(    }) s
5 174 M
(  }) s
5 152 M
(  //) s
5 141 M
(  // mergeSort) s
5 130 M
(  //) s
5 119 M
(  // Sorts an array of integers using mergesort.) s
5 108 M
(  //) s
5 97 M
(  // This code is the top-level procedure that) s
5 86 M
(  // invokes the recursive procedure for mergeSort.) s
5 75 M
(  //) s
5 64 M
(  def mergeSort\(a:Array[Int]\):Unit = {) s
5 53 M
(    val n:Int = a.length;) s
5 42 M
(    mergeSortRec\(a,0,n-1\);) s
5 31 M
(  }) s
5 9 M
(  // ) s
_R
S
%%Page: (2) 2
%%BeginPageSetup
_S
90 rotate
36 -594 translate
/pagenum 2 def
/fname (lec1_2.scala) def
/fdir (.) def
/ftail (lec1_2.scala) def
% User defined strings:
/fmodstr (Wed Jan 30 09:21:13 2013) def
/pagenumstr (2) def
/user_header_p false def
/user_footer_p false def
%%EndPageSetup
do_header
5 548 M
(  // mergeSortRec) s
5 537 M
(  //) s
5 526 M
(  // This recursively sorts the array a within) s
5 515 M
(  // the index range p..r.  It is exactly the ) s
5 504 M
(  // algorithm described in CLRS 2.3 and this ) s
5 493 M
(  // code is given as pseudo-code on page 34.) s
5 482 M
(  //) s
5 471 M
(  // It relies on the procedure merge, below,) s
5 460 M
(  // to merge two recursively sorted sub-ranges.) s
5 449 M
(  //) s
5 438 M
(  def mergeSortRec\(a:Array[Int],p:Int,r:Int\):Unit = {) s
5 416 M
(    // if the array range to sort is longer than 1) s
5 405 M
(    if \(p < r\) {) s
5 383 M
(      // compute the split index) s
5 372 M
(      val q:Int = \(p + r\)/2;   // note that this is integer division) s
5 361 M
(                               // nor fractional part) s
5 350 M
(      ) s
5 339 M
(      mergeSortRec\(a, p, q\);) s
5 328 M
(      mergeSortRec\(a, q+1, r\);) s
5 317 M
(      merge\(a, p, q, r\);) s
5 306 M
(    }) s
5 295 M
(  }) s
5 273 M
(  //) s
5 262 M
(  // merge) s
5 251 M
(  //) s
5 240 M
(  // This procedure merges two sorted portions of an array, the) s
5 229 M
(  // elements in range p..q, and the elements in range q+1..r.  The) s
5 218 M
(  // resulting sorted values are put in the range p..r.  ) s
5 207 M
(  //) s
5 196 M
(  // It copies the two portions into arrays left and right in order) s
5 185 M
(  // to merge those values back into the combined portion in a.) s
5 174 M
(  // ) s
5 163 M
(  def merge\(a:Array[Int], p:Int, q:Int, r:Int\) {) s
5 141 M
(    // make a copy of the left half, with an) s
5 130 M
(    // aditional "sentinel" value of infinity.) s
5 119 M
(    // \(see CLRS page 31\).) s
5 108 M
(    //) s
5 97 M
(    val ln:Int = q - p + 1;) s
5 86 M
(    val left:Array[Int] = new Array[Int]\(ln+1\);) s
5 64 M
(    for \(i <- 0 until ln\) {) s
5 53 M
(      left\(i\) = a\(p+i\);) s
5 42 M
(    }) s
5 31 M
(    left\(ln\) = Int.MaxValue;) s
5 9 M
(    // make a copy of the right half) s
_R
S
%%Page: (3) 3
%%BeginPageSetup
_S
90 rotate
36 -594 translate
/pagenum 3 def
/fname (lec1_2.scala) def
/fdir (.) def
/ftail (lec1_2.scala) def
% User defined strings:
/fmodstr (Wed Jan 30 09:21:13 2013) def
/pagenumstr (3) def
/user_header_p false def
/user_footer_p false def
%%EndPageSetup
do_header
5 548 M
(    val rn:Int = r - q;) s
5 537 M
(    val right:Array[Int] = new Array[Int]\(rn+1\);) s
5 515 M
(    for \(i <- 0 until rn\) {) s
5 504 M
(      right\(i\) = a\(q+1+i\);) s
5 493 M
(    }) s
5 482 M
(    right\(rn\) = Int.MaxValue;) s
5 460 M
(    var li:Int = 0;) s
5 449 M
(    var ri:Int = 0;) s
5 438 M
(    for \(i <- p to r\) {) s
5 427 M
(      if \(left\(li\) <= right\(ri\)\) {) s
5 416 M
(        a\(i\) = left\(li\);) s
5 405 M
(        li = li + 1;) s
5 394 M
(      } else {) s
5 383 M
(        a\(i\) = right\(ri\);) s
5 372 M
(        ri = ri + 1;) s
5 361 M
(      }) s
5 350 M
(    }) s
5 339 M
(  }) s
5 317 M
(  //) s
5 306 M
(  // main) s
5 295 M
(  //) s
5 284 M
(  // Tests insertion sort and merge sort.) s
5 273 M
(  //) s
5 262 M
(  def main\(args:Array[String]\):Unit = {) s
5 240 M
(    val ints:Array[Int] = new Array[Int]\(args.length\);) s
5 218 M
(    for \(i <- 0 until args.length\) {) s
5 207 M
(      ints\(i\) = args\(i\).toInt;) s
5 196 M
(    }) s
5 174 M
(    print\("BEFORE:"\)) s
5 163 M
(    for \(v <- ints\) {) s
5 152 M
(      print\(v + " "\);) s
5 141 M
(    }) s
5 130 M
(    println\(\);) s
5 108 M
(    // Test insertion sort.) s
5 97 M
(    insertionSort\(ints\);) s
5 86 M
(    ) s
5 75 M
(    println\("AFTER ISORT:"\)) s
5 64 M
(    for \(v <- ints\) {) s
5 53 M
(      print\(v + " "\);) s
5 42 M
(    }) s
5 31 M
(    println\(\);) s
5 9 M
(    // Now test mergesort.) s
_R
S
%%Page: (4) 4
%%BeginPageSetup
_S
90 rotate
36 -594 translate
/pagenum 4 def
/fname (lec1_2.scala) def
/fdir (.) def
/ftail (lec1_2.scala) def
% User defined strings:
/fmodstr (Wed Jan 30 09:21:13 2013) def
/pagenumstr (4) def
/user_header_p false def
/user_footer_p false def
%%EndPageSetup
do_header
5 548 M
(    for \(i <- 0 until args.length\) {) s
5 537 M
(      ints\(i\) = args\(i\).toInt;) s
5 526 M
(    }) s
5 504 M
(    mergeSort\(ints\);) s
5 493 M
(    ) s
5 482 M
(    println\("AFTER MSORT:"\)) s
5 471 M
(    for \(v <- ints\) {) s
5 460 M
(      print\(v + " "\);) s
5 449 M
(    }) s
5 438 M
(    println\(\);) s
5 416 M
(  }) s
5 405 M
(}) s
5 394 M
(    ) s
_R
S
%%Trailer
%%Pages: 4
%%DocumentNeededResources: font Courier-Bold Courier 
%%EOF
