%!PS-Adobe-3.0
%%BoundingBox: 18 36 594 756
%%Title: Enscript Output
%%Creator: GNU Enscript 1.6.5.2
%%CreationDate: Wed Feb 13 03:53:46 2013
%%Orientation: Landscape
%%Pages: (atend)
%%DocumentMedia: Letter 612 792 0 () ()
%%DocumentNeededResources: (atend)
%%EndComments
%%BeginProlog
%%BeginResource: procset Enscript-Prolog 1.6.5 2
%
% Procedures.
%

/_S {	% save current state
  /_s save def
} def
/_R {	% restore from saved state
  _s restore
} def

/S {	% showpage protecting gstate
  gsave
  showpage
  grestore
} bind def

/MF {	% fontname newfontname -> -	make a new encoded font
  /newfontname exch def
  /fontname exch def

  /fontdict fontname findfont def
  /newfont fontdict maxlength dict def

  fontdict {
    exch
    dup /FID eq {
      % skip FID pair
      pop pop
    } {
      % copy to the new font dictionary
      exch newfont 3 1 roll put
    } ifelse
  } forall

  newfont /FontName newfontname put

  % insert only valid encoding vectors
  encoding_vector length 256 eq {
    newfont /Encoding encoding_vector put
  } if

  newfontname newfont definefont pop
} def

/MF_PS { % fontname newfontname -> -	make a new font preserving its enc
  /newfontname exch def
  /fontname exch def

  /fontdict fontname findfont def
  /newfont fontdict maxlength dict def

  fontdict {
    exch
    dup /FID eq {
      % skip FID pair
      pop pop
    } {
      % copy to the new font dictionary
      exch newfont 3 1 roll put
    } ifelse
  } forall

  newfont /FontName newfontname put

  newfontname newfont definefont pop
} def

/SF { % fontname width height -> -	set a new font
  /height exch def
  /width exch def

  findfont
  [width 0 0 height 0 0] makefont setfont
} def

/SUF { % fontname width height -> -	set a new user font
  /height exch def
  /width exch def

  /F-gs-user-font MF
  /F-gs-user-font width height SF
} def

/SUF_PS { % fontname width height -> -	set a new user font preserving its enc
  /height exch def
  /width exch def

  /F-gs-user-font MF_PS
  /F-gs-user-font width height SF
} def

/M {moveto} bind def
/s {show} bind def

/Box {	% x y w h -> -			define box path
  /d_h exch def /d_w exch def /d_y exch def /d_x exch def
  d_x d_y  moveto
  d_w 0 rlineto
  0 d_h rlineto
  d_w neg 0 rlineto
  closepath
} def

/bgs {	% x y height blskip gray str -> -	show string with bg color
  /str exch def
  /gray exch def
  /blskip exch def
  /height exch def
  /y exch def
  /x exch def

  gsave
    x y blskip sub str stringwidth pop height Box
    gray setgray
    fill
  grestore
  x y M str s
} def

/bgcs { % x y height blskip red green blue str -> -  show string with bg color
  /str exch def
  /blue exch def
  /green exch def
  /red exch def
  /blskip exch def
  /height exch def
  /y exch def
  /x exch def

  gsave
    x y blskip sub str stringwidth pop height Box
    red green blue setrgbcolor
    fill
  grestore
  x y M str s
} def

% Highlight bars.
/highlight_bars {	% nlines lineheight output_y_margin gray -> -
  gsave
    setgray
    /ymarg exch def
    /lineheight exch def
    /nlines exch def

    % This 2 is just a magic number to sync highlight lines to text.
    0 d_header_y ymarg sub 2 sub translate

    /cw d_output_w cols div def
    /nrows d_output_h ymarg 2 mul sub lineheight div cvi def

    % for each column
    0 1 cols 1 sub {
      cw mul /xp exch def

      % for each rows
      0 1 nrows 1 sub {
        /rn exch def
        rn lineheight mul neg /yp exch def
        rn nlines idiv 2 mod 0 eq {
	  % Draw highlight bar.  4 is just a magic indentation.
	  xp 4 add yp cw 8 sub lineheight neg Box fill
	} if
      } for
    } for

  grestore
} def

% Line highlight bar.
/line_highlight {	% x y width height gray -> -
  gsave
    /gray exch def
    Box gray setgray fill
  grestore
} def

% Column separator lines.
/column_lines {
  gsave
    .1 setlinewidth
    0 d_footer_h translate
    /cw d_output_w cols div def
    1 1 cols 1 sub {
      cw mul 0 moveto
      0 d_output_h rlineto stroke
    } for
  grestore
} def

% Column borders.
/column_borders {
  gsave
    .1 setlinewidth
    0 d_footer_h moveto
    0 d_output_h rlineto
    d_output_w 0 rlineto
    0 d_output_h neg rlineto
    closepath stroke
  grestore
} def

% Do the actual underlay drawing
/draw_underlay {
  ul_style 0 eq {
    ul_str true charpath stroke
  } {
    ul_str show
  } ifelse
} def

% Underlay
/underlay {	% - -> -
  gsave
    0 d_page_h translate
    d_page_h neg d_page_w atan rotate

    ul_gray setgray
    ul_font setfont
    /dw d_page_h dup mul d_page_w dup mul add sqrt def
    ul_str stringwidth pop dw exch sub 2 div ul_h_ptsize -2 div moveto
    draw_underlay
  grestore
} def

/user_underlay {	% - -> -
  gsave
    ul_x ul_y translate
    ul_angle rotate
    ul_gray setgray
    ul_font setfont
    0 0 ul_h_ptsize 2 div sub moveto
    draw_underlay
  grestore
} def

% Page prefeed
/page_prefeed {		% bool -> -
  statusdict /prefeed known {
    statusdict exch /prefeed exch put
  } {
    pop
  } ifelse
} def

% Wrapped line markers
/wrapped_line_mark {	% x y charwith charheight type -> -
  /type exch def
  /h exch def
  /w exch def
  /y exch def
  /x exch def

  type 2 eq {
    % Black boxes (like TeX does)
    gsave
      0 setlinewidth
      x w 4 div add y M
      0 h rlineto w 2 div 0 rlineto 0 h neg rlineto
      closepath fill
    grestore
  } {
    type 3 eq {
      % Small arrows
      gsave
        .2 setlinewidth
        x w 2 div add y h 2 div add M
        w 4 div 0 rlineto
        x w 4 div add y lineto stroke

        x w 4 div add w 8 div add y h 4 div add M
        x w 4 div add y lineto
	w 4 div h 8 div rlineto stroke
      grestore
    } {
      % do nothing
    } ifelse
  } ifelse
} def

% EPSF import.

/BeginEPSF {
  /b4_Inc_state save def    		% Save state for cleanup
  /dict_count countdictstack def	% Count objects on dict stack
  /op_count count 1 sub def		% Count objects on operand stack
  userdict begin
  /showpage { } def
  0 setgray 0 setlinecap
  1 setlinewidth 0 setlinejoin
  10 setmiterlimit [ ] 0 setdash newpath
  /languagelevel where {
    pop languagelevel
    1 ne {
      false setstrokeadjust false setoverprint
    } if
  } if
} bind def

/EndEPSF {
  count op_count sub { pos } repeat	% Clean up stacks
  countdictstack dict_count sub { end } repeat
  b4_Inc_state restore
} bind def

% Check PostScript language level.
/languagelevel where {
  pop /gs_languagelevel languagelevel def
} {
  /gs_languagelevel 1 def
} ifelse
%%EndResource
%%BeginResource: procset Enscript-Encoding-88591 1.6.5 2
/encoding_vector [
/.notdef      	/.notdef      	/.notdef      	/.notdef      	
/.notdef      	/.notdef      	/.notdef      	/.notdef      	
/.notdef      	/.notdef      	/.notdef      	/.notdef      	
/.notdef      	/.notdef      	/.notdef      	/.notdef      	
/.notdef      	/.notdef      	/.notdef      	/.notdef      	
/.notdef      	/.notdef      	/.notdef      	/.notdef      	
/.notdef      	/.notdef      	/.notdef      	/.notdef      	
/.notdef      	/.notdef      	/.notdef      	/.notdef      	
/space        	/exclam       	/quotedbl     	/numbersign   	
/dollar       	/percent      	/ampersand    	/quoteright   	
/parenleft    	/parenright   	/asterisk     	/plus         	
/comma        	/hyphen       	/period       	/slash        	
/zero         	/one          	/two          	/three        	
/four         	/five         	/six          	/seven        	
/eight        	/nine         	/colon        	/semicolon    	
/less         	/equal        	/greater      	/question     	
/at           	/A            	/B            	/C            	
/D            	/E            	/F            	/G            	
/H            	/I            	/J            	/K            	
/L            	/M            	/N            	/O            	
/P            	/Q            	/R            	/S            	
/T            	/U            	/V            	/W            	
/X            	/Y            	/Z            	/bracketleft  	
/backslash    	/bracketright 	/asciicircum  	/underscore   	
/quoteleft    	/a            	/b            	/c            	
/d            	/e            	/f            	/g            	
/h            	/i            	/j            	/k            	
/l            	/m            	/n            	/o            	
/p            	/q            	/r            	/s            	
/t            	/u            	/v            	/w            	
/x            	/y            	/z            	/braceleft    	
/bar          	/braceright   	/tilde        	/.notdef      	
/.notdef      	/.notdef      	/.notdef      	/.notdef      	
/.notdef      	/.notdef      	/.notdef      	/.notdef      	
/.notdef      	/.notdef      	/.notdef      	/.notdef      	
/.notdef      	/.notdef      	/.notdef      	/.notdef      	
/.notdef      	/.notdef      	/.notdef      	/.notdef      	
/.notdef      	/.notdef      	/.notdef      	/.notdef      	
/.notdef      	/.notdef      	/.notdef      	/.notdef      	
/.notdef      	/.notdef      	/.notdef      	/.notdef      	
/space        	/exclamdown   	/cent         	/sterling     	
/currency     	/yen          	/brokenbar    	/section      	
/dieresis     	/copyright    	/ordfeminine  	/guillemotleft	
/logicalnot   	/hyphen       	/registered   	/macron       	
/degree       	/plusminus    	/twosuperior  	/threesuperior	
/acute        	/mu           	/paragraph    	/bullet       	
/cedilla      	/onesuperior  	/ordmasculine 	/guillemotright	
/onequarter   	/onehalf      	/threequarters	/questiondown 	
/Agrave       	/Aacute       	/Acircumflex  	/Atilde       	
/Adieresis    	/Aring        	/AE           	/Ccedilla     	
/Egrave       	/Eacute       	/Ecircumflex  	/Edieresis    	
/Igrave       	/Iacute       	/Icircumflex  	/Idieresis    	
/Eth          	/Ntilde       	/Ograve       	/Oacute       	
/Ocircumflex  	/Otilde       	/Odieresis    	/multiply     	
/Oslash       	/Ugrave       	/Uacute       	/Ucircumflex  	
/Udieresis    	/Yacute       	/Thorn        	/germandbls   	
/agrave       	/aacute       	/acircumflex  	/atilde       	
/adieresis    	/aring        	/ae           	/ccedilla     	
/egrave       	/eacute       	/ecircumflex  	/edieresis    	
/igrave       	/iacute       	/icircumflex  	/idieresis    	
/eth          	/ntilde       	/ograve       	/oacute       	
/ocircumflex  	/otilde       	/odieresis    	/divide       	
/oslash       	/ugrave       	/uacute       	/ucircumflex  	
/udieresis    	/yacute       	/thorn        	/ydieresis    	
] def
%%EndResource
%%EndProlog
%%BeginSetup
%%IncludeResource: font Courier-Bold
%%IncludeResource: font Courier
/HFpt_w 10 def
/HFpt_h 10 def
/Courier-Bold /HF-gs-font MF
/HF /HF-gs-font findfont [HFpt_w 0 0 HFpt_h 0 0] makefont def
/Courier /F-gs-font MF
/F-gs-font 10 10 SF
/#copies 1 def
% Pagedevice definitions:
gs_languagelevel 1 gt {
  <<
    /PageSize [612 792] 
  >> setpagedevice
} if
%%BeginResource: procset Enscript-Header-simple 1.6.5 2

/do_header {	% print default simple header
  gsave
    d_header_x d_header_y HFpt_h 3 div add translate

    HF setfont
    user_header_p {
      5 0 moveto user_header_left_str show

      d_header_w user_header_center_str stringwidth pop sub 2 div
      0 moveto user_header_center_str show

      d_header_w user_header_right_str stringwidth pop sub 5 sub
      0 moveto user_header_right_str show
    } {
      5 0 moveto fname show
      45 0 rmoveto fmodstr show
      45 0 rmoveto pagenumstr show
    } ifelse

  grestore
} def
%%EndResource
/d_page_w 720 def
/d_page_h 576 def
/d_header_x 0 def
/d_header_y 561 def
/d_header_w 720 def
/d_header_h 15 def
/d_footer_x 0 def
/d_footer_y 0 def
/d_footer_w 720 def
/d_footer_h 0 def
/d_output_w 720 def
/d_output_h 561 def
/cols 1 def
%%EndSetup
%%Page: (1) 1
%%BeginPageSetup
_S
90 rotate
36 -594 translate
/pagenum 1 def
/fname (README) def
/fdir (.) def
/ftail (README) def
% User defined strings:
/fmodstr (Wed Feb 13 03:51:53 2013) def
/pagenumstr (1) def
/user_header_p false def
/user_footer_p false def
%%EndPageSetup
do_header
5 548 M
(Ben Corner) s
5 537 M
(bcorner) s
5 515 M
(MATH382) s
5 504 M
(02/13/2013) s
5 482 M
(*************************************** ) s
5 471 M
(* RELEASE NOTES -- hw1bcornerV1.scala *) s
5 460 M
(*************************************** ) s
5 438 M
(Both bubbleSort and selectionSort seem to work fine.) s
5 427 M
(I added some silly functions. Not sure why, just felt like it.) s
5 372 M
(FUNCTIONS ADDED:) s
5 361 M
(****************) s
5 339 M
(  printArray\(a:Array[Int]\):Unit) s
5 317 M
(        This function just makes it easier to print an array when you want, within the file.) s
5 273 M
(  test\(a:Array[Int]\):Unit) s
5 251 M
(        This function takes an array, makes a copy of it \(to preserve initial unsorted state for both sorts\), then app) s
5 240 M
(lies bubblesort, selectionsort to one copy each.) s
5 196 M
(  main) s
5 174 M
(        Just tweaked this so if no cl-args are given it runs a couple of hard-coded example arrays through test\(\) for ) s
5 163 M
(shits and giggles.) s
_R
S
%%Page: (1) 2
%%BeginPageSetup
_S
90 rotate
36 -594 translate
/pagenum 1 def
/fname (hw1bcorner.scala) def
/fdir (.) def
/ftail (hw1bcorner.scala) def
% User defined strings:
/fmodstr (Wed Feb 13 03:51:53 2013) def
/pagenumstr (1) def
/user_header_p false def
/user_footer_p false def
%%EndPageSetup
do_header
5 548 M
(//   Ben Corner) s
5 537 M
(//   MATH382 -- HW #1) s
5 526 M
(//   13 Feb. 2013) s
5 493 M
(object hw01_v2 {) s
5 471 M
(      //) s
5 460 M
(      // bubblesort) s
5 449 M
(      //) s
5 438 M
(      // Sorts using the magical power of bubbles.) s
5 427 M
(      // ) s
5 405 M
(      def bubbleSort\(a:Array[Int]\):Unit = {) s
5 394 M
(            val n:Int = a.length;) s
5 383 M
(            var i:Int = 1;) s
5 372 M
(            var j:Int = n-1;) s
5 361 M
(            var temp:Int = 0;             ) s
5 350 M
(            ) s
5 339 M
(            for \(i <- 0 to n-1\) {) s
5 328 M
(                  for \(j <- n-1 to i+1 by -1\) {) s
5 317 M
(                        temp = a\(j\);) s
5 306 M
(                        ) s
5 295 M
(                        if \( a\(j\) < a\(j-1\) \) { // Swap adjacent values that need to be swapped.) s
5 284 M
(                              a\(j\) = a\(j-1\);) s
5 273 M
(                              a\(j-1\) = temp;) s
5 262 M
(                        }) s
5 251 M
(                  }) s
5 240 M
(            }     ) s
5 229 M
(      } ) s
5 174 M
(      //) s
5 163 M
(      // selection sort) s
5 152 M
(      //) s
5 141 M
(      // Fairly straightforward implementation of selection-sort.) s
5 130 M
(      // ) s
5 108 M
(      def selectionSort\(a:Array[Int]\):Unit = {) s
5 97 M
(            val n:Int = a.length;) s
5 86 M
(            var j:Int = 0;) s
5 75 M
(            var min:Int = 0;) s
5 64 M
(            var temp:Int = 0) s
5 53 M
(            ) s
5 42 M
(            for \(j <- 0 to n-1\) {) s
5 31 M
(                  ) s
5 20 M
(                  min = j;) s
5 9 M
(                  ) s
_R
S
%%Page: (2) 3
%%BeginPageSetup
_S
90 rotate
36 -594 translate
/pagenum 2 def
/fname (hw1bcorner.scala) def
/fdir (.) def
/ftail (hw1bcorner.scala) def
% User defined strings:
/fmodstr (Wed Feb 13 03:51:53 2013) def
/pagenumstr (2) def
/user_header_p false def
/user_footer_p false def
%%EndPageSetup
do_header
5 548 M
(                  for \(i <- j to n-1\) {) s
5 526 M
(                        if \(a\(i\) < a\(min\)\) {) s
5 515 M
(                              min = i;) s
5 504 M
(                        }) s
5 493 M
(                  }) s
5 482 M
(                  ) s
5 471 M
(                  if \(min != j\) {) s
5 460 M
(                        temp = a\(j\);) s
5 449 M
(                        a\(j\) = a\(min\);) s
5 438 M
(                        a\(min\) = temp;) s
5 427 M
(                  }) s
5 416 M
(            }) s
5 405 M
(      }) s
5 394 M
(  ) s
5 383 M
(      //) s
5 372 M
(      // printArray) s
5 361 M
(      //) s
5 350 M
(      // A simple function to print the contents of an array.) s
5 339 M
(      def printArray\(a:Array[Int]\):Unit = {) s
5 317 M
(            for \(v <- a\) {) s
5 306 M
(                  print\(v + " "\);) s
5 295 M
(            }) s
5 284 M
(            println\(\);) s
5 273 M
(            println\(\);) s
5 262 M
(      }) s
5 240 M
(      ) s
5 218 M
(      //) s
5 207 M
(      // test) s
5 196 M
(      //) s
5 185 M
(      // When passed an array of values, test creates a copy of the array) s
5 174 M
(      // \(so one of the sorts doesn't end up being tested with the sorted) s
5 163 M
(      // output of the first sorting algorithm\).) s
5 152 M
(      //) s
5 141 M
(      // Then, it runs through and prints out the array contents both before) s
5 130 M
(      // and after application of each of the sorting algorithms.) s
5 97 M
(      def test\(a:Array[Int]\):Unit = {) s
5 86 M
(            ) s
5 75 M
(            var b:Array[Int] = new Array[Int]\(a.length\);) s
5 64 M
(            Array.copy\(a, 0, b, 0, a.length\)) s
5 42 M
(            print\("RUNNING TEST CASE"\);) s
5 31 M
(            println\(\);) s
5 9 M
(            println\("PRE-SORT: Copy a"\);   // Prints initial value of array 'a') s
_R
S
%%Page: (3) 4
%%BeginPageSetup
_S
90 rotate
36 -594 translate
/pagenum 3 def
/fname (hw1bcorner.scala) def
/fdir (.) def
/ftail (hw1bcorner.scala) def
% User defined strings:
/fmodstr (Wed Feb 13 03:51:53 2013) def
/pagenumstr (3) def
/user_header_p false def
/user_footer_p false def
%%EndPageSetup
do_header
5 548 M
(            printArray\(a\);) s
5 526 M
(            println\("Using bubblesort:"\);  // Applies bubbleSort to a.) s
5 515 M
(            bubbleSort\(a\)) s
5 504 M
(            printArray\(a\)       ) s
5 449 M
(            println\("PRE-SORT: Copy b"\);   // Prints initial value of array 'b') s
5 438 M
(            printArray\(b\);) s
5 416 M
(            println\("Using selection-sort"\); // Applies selection-sort to b.) s
5 405 M
(            selectionSort\(b\);) s
5 394 M
(            printArray\(b\);) s
5 372 M
(            println\("********  DONE WITH BOTH SORTS  ********"\);) s
5 361 M
(            println\(\);) s
5 350 M
(      }) s
5 284 M
(      //) s
5 273 M
(      // main) s
5 262 M
(      //) s
5 251 M
(      // Calls for test\(\) of either) s
5 240 M
(      //       i.\)  an array passed through command line args) s
5 229 M
(      //       ii.\) a small assortment of various other hard-coded arrays) s
5 218 M
(      //) s
5 207 M
(      def main\(args:Array[String]\):Unit = {) s
5 185 M
(            val ints:Array[Int] = new Array[Int]\(args.length\);) s
5 163 M
(            for \(i <- 0 until args.length\) {) s
5 152 M
(                  ints\(i\) = args\(i\).toInt;) s
5 141 M
(            }) s
5 119 M
(            test\(ints\);   //// Sorting the command-line arg input) s
5 86 M
(            //////// RUN SOME TESTS HERE FOR FUN IF NO INPUT GIVEN ////////) s
5 75 M
(            if \(ints.length == 0\) {) s
5 64 M
(                  test\(Array\(7,4,5,3,2,9,13,1,3,1\)\);) s
5 53 M
(                  test\(Array\(1,2,2,2,2,2,2,2,2\)\);) s
5 42 M
(                  test\(Array\(1,1,1,1,1,1,1,1,2\)\);) s
5 31 M
(                  test\(Array\(\)\);) s
5 20 M
(                  test\(Array\(0\)\);) s
5 9 M
(                  test\(Array\(10,1,2,3,4,5,6,7,8,9,10\)\);) s
_R
S
%%Page: (4) 5
%%BeginPageSetup
_S
90 rotate
36 -594 translate
/pagenum 4 def
/fname (hw1bcorner.scala) def
/fdir (.) def
/ftail (hw1bcorner.scala) def
% User defined strings:
/fmodstr (Wed Feb 13 03:51:53 2013) def
/pagenumstr (4) def
/user_header_p false def
/user_footer_p false def
%%EndPageSetup
do_header
5 548 M
(            }) s
5 537 M
(      }) s
5 526 M
(}) s
5 515 M
(  ) s
_R
S
%%Page: (1) 6
%%BeginPageSetup
_S
90 rotate
36 -594 translate
/pagenum 1 def
/fname (test1.out) def
/fdir (.) def
/ftail (test1.out) def
% User defined strings:
/fmodstr (Wed Feb 13 03:51:53 2013) def
/pagenumstr (1) def
/user_header_p false def
/user_footer_p false def
%%EndPageSetup
do_header
5 548 M
(RUNNING TEST CASE) s
5 537 M
(PRE-SORT: Copy a) s
5 504 M
(Using bubblesort:) s
5 471 M
(PRE-SORT: Copy b) s
5 438 M
(Using selection-sort) s
5 405 M
(********  DONE WITH BOTH SORTS  ********) s
5 383 M
(RUNNING TEST CASE) s
5 372 M
(PRE-SORT: Copy a) s
5 361 M
(7 4 5 3 2 9 13 1 3 1 ) s
5 339 M
(Using bubblesort:) s
5 328 M
(1 1 2 3 3 4 5 7 9 13 ) s
5 306 M
(PRE-SORT: Copy b) s
5 295 M
(7 4 5 3 2 9 13 1 3 1 ) s
5 273 M
(Using selection-sort) s
5 262 M
(1 1 2 3 3 4 5 7 9 13 ) s
5 240 M
(********  DONE WITH BOTH SORTS  ********) s
5 218 M
(RUNNING TEST CASE) s
5 207 M
(PRE-SORT: Copy a) s
5 196 M
(1 2 2 2 2 2 2 2 2 ) s
5 174 M
(Using bubblesort:) s
5 163 M
(1 2 2 2 2 2 2 2 2 ) s
5 141 M
(PRE-SORT: Copy b) s
5 130 M
(1 2 2 2 2 2 2 2 2 ) s
5 108 M
(Using selection-sort) s
5 97 M
(1 2 2 2 2 2 2 2 2 ) s
5 75 M
(********  DONE WITH BOTH SORTS  ********) s
5 53 M
(RUNNING TEST CASE) s
5 42 M
(PRE-SORT: Copy a) s
5 31 M
(1 1 1 1 1 1 1 1 2 ) s
5 9 M
(Using bubblesort:) s
_R
S
%%Page: (2) 7
%%BeginPageSetup
_S
90 rotate
36 -594 translate
/pagenum 2 def
/fname (test1.out) def
/fdir (.) def
/ftail (test1.out) def
% User defined strings:
/fmodstr (Wed Feb 13 03:51:53 2013) def
/pagenumstr (2) def
/user_header_p false def
/user_footer_p false def
%%EndPageSetup
do_header
5 548 M
(1 1 1 1 1 1 1 1 2 ) s
5 526 M
(PRE-SORT: Copy b) s
5 515 M
(1 1 1 1 1 1 1 1 2 ) s
5 493 M
(Using selection-sort) s
5 482 M
(1 1 1 1 1 1 1 1 2 ) s
5 460 M
(********  DONE WITH BOTH SORTS  ********) s
5 438 M
(RUNNING TEST CASE) s
5 427 M
(PRE-SORT: Copy a) s
5 394 M
(Using bubblesort:) s
5 361 M
(PRE-SORT: Copy b) s
5 328 M
(Using selection-sort) s
5 295 M
(********  DONE WITH BOTH SORTS  ********) s
5 273 M
(RUNNING TEST CASE) s
5 262 M
(PRE-SORT: Copy a) s
5 251 M
(0 ) s
5 229 M
(Using bubblesort:) s
5 218 M
(0 ) s
5 196 M
(PRE-SORT: Copy b) s
5 185 M
(0 ) s
5 163 M
(Using selection-sort) s
5 152 M
(0 ) s
5 130 M
(********  DONE WITH BOTH SORTS  ********) s
5 108 M
(RUNNING TEST CASE) s
5 97 M
(PRE-SORT: Copy a) s
5 86 M
(10 1 2 3 4 5 6 7 8 9 10 ) s
5 64 M
(Using bubblesort:) s
5 53 M
(1 2 3 4 5 6 7 8 9 10 10 ) s
5 31 M
(PRE-SORT: Copy b) s
5 20 M
(10 1 2 3 4 5 6 7 8 9 10 ) s
_R
S
%%Page: (3) 8
%%BeginPageSetup
_S
90 rotate
36 -594 translate
/pagenum 3 def
/fname (test1.out) def
/fdir (.) def
/ftail (test1.out) def
% User defined strings:
/fmodstr (Wed Feb 13 03:51:53 2013) def
/pagenumstr (3) def
/user_header_p false def
/user_footer_p false def
%%EndPageSetup
do_header
5 548 M
(Using selection-sort) s
5 537 M
(1 2 3 4 5 6 7 8 9 10 10 ) s
5 515 M
(********  DONE WITH BOTH SORTS  ********) s
_R
S
%%Trailer
%%Pages: 8
%%DocumentNeededResources: font Courier-Bold Courier 
%%EOF
