%!PS-Adobe-3.0
%%BoundingBox: 18 36 594 756
%%Title: Enscript Output
%%Creator: GNU Enscript 1.6.5.2
%%CreationDate: Wed Feb 27 17:27:16 2013
%%Orientation: Portrait
%%Pages: (atend)
%%DocumentMedia: Letter 612 792 0 () ()
%%DocumentNeededResources: (atend)
%%EndComments
%%BeginProlog
%%BeginResource: procset Enscript-Prolog 1.6.5 2
%
% Procedures.
%

/_S {	% save current state
  /_s save def
} def
/_R {	% restore from saved state
  _s restore
} def

/S {	% showpage protecting gstate
  gsave
  showpage
  grestore
} bind def

/MF {	% fontname newfontname -> -	make a new encoded font
  /newfontname exch def
  /fontname exch def

  /fontdict fontname findfont def
  /newfont fontdict maxlength dict def

  fontdict {
    exch
    dup /FID eq {
      % skip FID pair
      pop pop
    } {
      % copy to the new font dictionary
      exch newfont 3 1 roll put
    } ifelse
  } forall

  newfont /FontName newfontname put

  % insert only valid encoding vectors
  encoding_vector length 256 eq {
    newfont /Encoding encoding_vector put
  } if

  newfontname newfont definefont pop
} def

/MF_PS { % fontname newfontname -> -	make a new font preserving its enc
  /newfontname exch def
  /fontname exch def

  /fontdict fontname findfont def
  /newfont fontdict maxlength dict def

  fontdict {
    exch
    dup /FID eq {
      % skip FID pair
      pop pop
    } {
      % copy to the new font dictionary
      exch newfont 3 1 roll put
    } ifelse
  } forall

  newfont /FontName newfontname put

  newfontname newfont definefont pop
} def

/SF { % fontname width height -> -	set a new font
  /height exch def
  /width exch def

  findfont
  [width 0 0 height 0 0] makefont setfont
} def

/SUF { % fontname width height -> -	set a new user font
  /height exch def
  /width exch def

  /F-gs-user-font MF
  /F-gs-user-font width height SF
} def

/SUF_PS { % fontname width height -> -	set a new user font preserving its enc
  /height exch def
  /width exch def

  /F-gs-user-font MF_PS
  /F-gs-user-font width height SF
} def

/M {moveto} bind def
/s {show} bind def

/Box {	% x y w h -> -			define box path
  /d_h exch def /d_w exch def /d_y exch def /d_x exch def
  d_x d_y  moveto
  d_w 0 rlineto
  0 d_h rlineto
  d_w neg 0 rlineto
  closepath
} def

/bgs {	% x y height blskip gray str -> -	show string with bg color
  /str exch def
  /gray exch def
  /blskip exch def
  /height exch def
  /y exch def
  /x exch def

  gsave
    x y blskip sub str stringwidth pop height Box
    gray setgray
    fill
  grestore
  x y M str s
} def

/bgcs { % x y height blskip red green blue str -> -  show string with bg color
  /str exch def
  /blue exch def
  /green exch def
  /red exch def
  /blskip exch def
  /height exch def
  /y exch def
  /x exch def

  gsave
    x y blskip sub str stringwidth pop height Box
    red green blue setrgbcolor
    fill
  grestore
  x y M str s
} def

% Highlight bars.
/highlight_bars {	% nlines lineheight output_y_margin gray -> -
  gsave
    setgray
    /ymarg exch def
    /lineheight exch def
    /nlines exch def

    % This 2 is just a magic number to sync highlight lines to text.
    0 d_header_y ymarg sub 2 sub translate

    /cw d_output_w cols div def
    /nrows d_output_h ymarg 2 mul sub lineheight div cvi def

    % for each column
    0 1 cols 1 sub {
      cw mul /xp exch def

      % for each rows
      0 1 nrows 1 sub {
        /rn exch def
        rn lineheight mul neg /yp exch def
        rn nlines idiv 2 mod 0 eq {
	  % Draw highlight bar.  4 is just a magic indentation.
	  xp 4 add yp cw 8 sub lineheight neg Box fill
	} if
      } for
    } for

  grestore
} def

% Line highlight bar.
/line_highlight {	% x y width height gray -> -
  gsave
    /gray exch def
    Box gray setgray fill
  grestore
} def

% Column separator lines.
/column_lines {
  gsave
    .1 setlinewidth
    0 d_footer_h translate
    /cw d_output_w cols div def
    1 1 cols 1 sub {
      cw mul 0 moveto
      0 d_output_h rlineto stroke
    } for
  grestore
} def

% Column borders.
/column_borders {
  gsave
    .1 setlinewidth
    0 d_footer_h moveto
    0 d_output_h rlineto
    d_output_w 0 rlineto
    0 d_output_h neg rlineto
    closepath stroke
  grestore
} def

% Do the actual underlay drawing
/draw_underlay {
  ul_style 0 eq {
    ul_str true charpath stroke
  } {
    ul_str show
  } ifelse
} def

% Underlay
/underlay {	% - -> -
  gsave
    0 d_page_h translate
    d_page_h neg d_page_w atan rotate

    ul_gray setgray
    ul_font setfont
    /dw d_page_h dup mul d_page_w dup mul add sqrt def
    ul_str stringwidth pop dw exch sub 2 div ul_h_ptsize -2 div moveto
    draw_underlay
  grestore
} def

/user_underlay {	% - -> -
  gsave
    ul_x ul_y translate
    ul_angle rotate
    ul_gray setgray
    ul_font setfont
    0 0 ul_h_ptsize 2 div sub moveto
    draw_underlay
  grestore
} def

% Page prefeed
/page_prefeed {		% bool -> -
  statusdict /prefeed known {
    statusdict exch /prefeed exch put
  } {
    pop
  } ifelse
} def

% Wrapped line markers
/wrapped_line_mark {	% x y charwith charheight type -> -
  /type exch def
  /h exch def
  /w exch def
  /y exch def
  /x exch def

  type 2 eq {
    % Black boxes (like TeX does)
    gsave
      0 setlinewidth
      x w 4 div add y M
      0 h rlineto w 2 div 0 rlineto 0 h neg rlineto
      closepath fill
    grestore
  } {
    type 3 eq {
      % Small arrows
      gsave
        .2 setlinewidth
        x w 2 div add y h 2 div add M
        w 4 div 0 rlineto
        x w 4 div add y lineto stroke

        x w 4 div add w 8 div add y h 4 div add M
        x w 4 div add y lineto
	w 4 div h 8 div rlineto stroke
      grestore
    } {
      % do nothing
    } ifelse
  } ifelse
} def

% EPSF import.

/BeginEPSF {
  /b4_Inc_state save def    		% Save state for cleanup
  /dict_count countdictstack def	% Count objects on dict stack
  /op_count count 1 sub def		% Count objects on operand stack
  userdict begin
  /showpage { } def
  0 setgray 0 setlinecap
  1 setlinewidth 0 setlinejoin
  10 setmiterlimit [ ] 0 setdash newpath
  /languagelevel where {
    pop languagelevel
    1 ne {
      false setstrokeadjust false setoverprint
    } if
  } if
} bind def

/EndEPSF {
  count op_count sub { pos } repeat	% Clean up stacks
  countdictstack dict_count sub { end } repeat
  b4_Inc_state restore
} bind def

% Check PostScript language level.
/languagelevel where {
  pop /gs_languagelevel languagelevel def
} {
  /gs_languagelevel 1 def
} ifelse
%%EndResource
%%BeginResource: procset Enscript-Encoding-88591 1.6.5 2
/encoding_vector [
/.notdef      	/.notdef      	/.notdef      	/.notdef      	
/.notdef      	/.notdef      	/.notdef      	/.notdef      	
/.notdef      	/.notdef      	/.notdef      	/.notdef      	
/.notdef      	/.notdef      	/.notdef      	/.notdef      	
/.notdef      	/.notdef      	/.notdef      	/.notdef      	
/.notdef      	/.notdef      	/.notdef      	/.notdef      	
/.notdef      	/.notdef      	/.notdef      	/.notdef      	
/.notdef      	/.notdef      	/.notdef      	/.notdef      	
/space        	/exclam       	/quotedbl     	/numbersign   	
/dollar       	/percent      	/ampersand    	/quoteright   	
/parenleft    	/parenright   	/asterisk     	/plus         	
/comma        	/hyphen       	/period       	/slash        	
/zero         	/one          	/two          	/three        	
/four         	/five         	/six          	/seven        	
/eight        	/nine         	/colon        	/semicolon    	
/less         	/equal        	/greater      	/question     	
/at           	/A            	/B            	/C            	
/D            	/E            	/F            	/G            	
/H            	/I            	/J            	/K            	
/L            	/M            	/N            	/O            	
/P            	/Q            	/R            	/S            	
/T            	/U            	/V            	/W            	
/X            	/Y            	/Z            	/bracketleft  	
/backslash    	/bracketright 	/asciicircum  	/underscore   	
/quoteleft    	/a            	/b            	/c            	
/d            	/e            	/f            	/g            	
/h            	/i            	/j            	/k            	
/l            	/m            	/n            	/o            	
/p            	/q            	/r            	/s            	
/t            	/u            	/v            	/w            	
/x            	/y            	/z            	/braceleft    	
/bar          	/braceright   	/tilde        	/.notdef      	
/.notdef      	/.notdef      	/.notdef      	/.notdef      	
/.notdef      	/.notdef      	/.notdef      	/.notdef      	
/.notdef      	/.notdef      	/.notdef      	/.notdef      	
/.notdef      	/.notdef      	/.notdef      	/.notdef      	
/.notdef      	/.notdef      	/.notdef      	/.notdef      	
/.notdef      	/.notdef      	/.notdef      	/.notdef      	
/.notdef      	/.notdef      	/.notdef      	/.notdef      	
/.notdef      	/.notdef      	/.notdef      	/.notdef      	
/space        	/exclamdown   	/cent         	/sterling     	
/currency     	/yen          	/brokenbar    	/section      	
/dieresis     	/copyright    	/ordfeminine  	/guillemotleft	
/logicalnot   	/hyphen       	/registered   	/macron       	
/degree       	/plusminus    	/twosuperior  	/threesuperior	
/acute        	/mu           	/paragraph    	/bullet       	
/cedilla      	/onesuperior  	/ordmasculine 	/guillemotright	
/onequarter   	/onehalf      	/threequarters	/questiondown 	
/Agrave       	/Aacute       	/Acircumflex  	/Atilde       	
/Adieresis    	/Aring        	/AE           	/Ccedilla     	
/Egrave       	/Eacute       	/Ecircumflex  	/Edieresis    	
/Igrave       	/Iacute       	/Icircumflex  	/Idieresis    	
/Eth          	/Ntilde       	/Ograve       	/Oacute       	
/Ocircumflex  	/Otilde       	/Odieresis    	/multiply     	
/Oslash       	/Ugrave       	/Uacute       	/Ucircumflex  	
/Udieresis    	/Yacute       	/Thorn        	/germandbls   	
/agrave       	/aacute       	/acircumflex  	/atilde       	
/adieresis    	/aring        	/ae           	/ccedilla     	
/egrave       	/eacute       	/ecircumflex  	/edieresis    	
/igrave       	/iacute       	/icircumflex  	/idieresis    	
/eth          	/ntilde       	/ograve       	/oacute       	
/ocircumflex  	/otilde       	/odieresis    	/divide       	
/oslash       	/ugrave       	/uacute       	/ucircumflex  	
/udieresis    	/yacute       	/thorn        	/ydieresis    	
] def
%%EndResource
%%EndProlog
%%BeginSetup
%%IncludeResource: font Courier-Bold
%%IncludeResource: font Courier
/HFpt_w 10 def
/HFpt_h 10 def
/Courier-Bold /HF-gs-font MF
/HF /HF-gs-font findfont [HFpt_w 0 0 HFpt_h 0 0] makefont def
/Courier /F-gs-font MF
/F-gs-font 10 10 SF
/#copies 1 def
% Pagedevice definitions:
gs_languagelevel 1 gt {
  <<
    /PageSize [612 792] 
  >> setpagedevice
} if
%%BeginResource: procset Enscript-Header-simple 1.6.5 2

/do_header {	% print default simple header
  gsave
    d_header_x d_header_y HFpt_h 3 div add translate

    HF setfont
    user_header_p {
      5 0 moveto user_header_left_str show

      d_header_w user_header_center_str stringwidth pop sub 2 div
      0 moveto user_header_center_str show

      d_header_w user_header_right_str stringwidth pop sub 5 sub
      0 moveto user_header_right_str show
    } {
      5 0 moveto fname show
      45 0 rmoveto fmodstr show
      45 0 rmoveto pagenumstr show
    } ifelse

  grestore
} def
%%EndResource
/d_page_w 576 def
/d_page_h 720 def
/d_header_x 0 def
/d_header_y 705 def
/d_header_w 576 def
/d_header_h 15 def
/d_footer_x 0 def
/d_footer_y 0 def
/d_footer_w 576 def
/d_footer_h 0 def
/d_output_w 576 def
/d_output_h 705 def
/cols 1 def
%%EndSetup
%%Page: (1) 1
%%BeginPageSetup
_S
18 36 translate
/pagenum 1 def
/fname (README) def
/fdir (.) def
/ftail (README) def
% User defined strings:
/fmodstr (Wed Feb 27 17:25:58 2013) def
/pagenumstr (1) def
/user_header_p false def
/user_footer_p false def
%%EndPageSetup
do_header
5 692 M
(Ben Corner) s
5 681 M
(bcorner) s
5 659 M
(Algorithms HW #3) s
5 648 M
(Version 1.0) s
5 637 M
(Turned In: 02/27/2013) s
5 604 M
(Code works for nonempty lists, nonnegative indices \(as it should\).) s
5 593 M
(select\(\) uses selectHelper\(\) which recursively calls itself to partition the list of values \(O) s
5 582 M
(NLY on the side of the original partition that the i-th element must lie\) and eventually retur) s
5 571 M
(ns the a\(i\) value once the i-th value has been partitioned/selected upon.) s
_R
S
%%Page: (1) 2
%%BeginPageSetup
_S
18 36 translate
/pagenum 1 def
/fname (hw3.scala) def
/fdir (.) def
/ftail (hw3.scala) def
% User defined strings:
/fmodstr (Wed Feb 27 17:16:50 2013) def
/pagenumstr (1) def
/user_header_p false def
/user_footer_p false def
%%EndPageSetup
do_header
5 692 M
(// MATH 382 HOMEWORK 3 EXERCISE 1) s
5 681 M
(//) s
5 670 M
(// Name: Ben Corner) s
5 659 M
(// Login: bcorner) s
5 648 M
(//) s
5 626 M
(object hw3 {) s
5 604 M
(      // select\( i ,  array a \)) s
5 593 M
(      //) s
5 582 M
(      // Takes an "order" and an array, calls selectHelper to) s
5 571 M
(      // find and return the value of the i-th order element of the array.) s
5 549 M
(      def select\(i:Int, a:Array[Int]\):Int = {) s
5 538 M
(            selectHelper\(i,a,0,a.length-1\);) s
5 527 M
(      }) s
5 516 M
(      ) s
5 505 M
(      def selectHelper\(i:Int, a:Array[Int], p:Int, r:Int\):Int = {           ) s
5 494 M
(            ) s
5 483 M
(            val q = partition\(a,p,r\);) s
5 472 M
(            if \(i < q\)                             // if the pivot-value comes to rest at an i) s
5 461 M
(ndex less than i,) s
5 450 M
(                  return selectHelper\(i,a,p,q-1\);  // examine the partition that must contain ) s
5 439 M
(the wanted value.) s
5 417 M
(            else if \(i > q\)) s
5 406 M
(                  return selectHelper\(i,a,q+1,r\);) s
5 395 M
(            else) s
5 384 M
(                  return a\(q\);                     // selectHelper returns the i-th order elem) s
5 373 M
(ent) s
5 362 M
(                                                   // precisely when the pivot-value comes to ) s
5 351 M
(rest) s
5 340 M
(                                                   // in the i-th slot.) s
5 329 M
(      }) s
5 285 M
(      // partition\( array a , left , right \)) s
5 274 M
(      //) s
5 263 M
(      // Takes an array together with the range of indices over which) s
5 252 M
(      // we are partitioning the array. This implementation of partition) s
5 241 M
(      // uses the right-most value in the array-range as the pivot-value.) s
5 219 M
(      def partition\(a:Array[Int],p:Int,r:Int\):Int = {) s
5 208 M
(            ) s
5 197 M
(            // choose rightmost value as pivot, x.) s
5 175 M
(            val x:Int = a\(r\);) s
5 164 M
(            var i:Int = p-1;) s
5 153 M
(            var j:Int = 0;) s
5 142 M
(            var temp:Int = 0;) s
5 131 M
(                  ) s
5 120 M
(            for \(j <- p to r-1\) { // Iterate over the array segment to be partitioned) s
5 109 M
(                  if \(a\(j\) <= x\) {  // If a value is less than the pivot value, then:) s
5 98 M
(                        i = i + 1;                      // record this by incrementing i) s
5 87 M
(                        temp = a\(j\);                    // exchange a\(i\) with a\(j\)) s
5 76 M
(                        a\(j\) = a\(i\); ) s
5 65 M
(                        a\(i\) = temp;) s
5 54 M
(                  }) s
5 43 M
(                  ) s
5 32 M
(            }) s
5 21 M
(            // exchange a\(i+1\) with a\(r\)) s
5 10 M
(            temp = a\(i+1\);) s
_R
S
%%Page: (2) 3
%%BeginPageSetup
_S
18 36 translate
/pagenum 2 def
/fname (hw3.scala) def
/fdir (.) def
/ftail (hw3.scala) def
% User defined strings:
/fmodstr (Wed Feb 27 17:16:50 2013) def
/pagenumstr (2) def
/user_header_p false def
/user_footer_p false def
%%EndPageSetup
do_header
5 692 M
(            a\(i+1\) = a\(r\);) s
5 681 M
(            a\(r\) = temp;) s
5 670 M
(            ) s
5 659 M
(            return \(i+1\);) s
5 648 M
(                  ) s
5 637 M
(      }) s
5 593 M
(      ) s
5 582 M
(      def main\(args:Array[String]\):Unit = {) s
5 560 M
(            //) s
5 549 M
(            // get the order index ) s
5 538 M
(            val which:Int = args\(0\).toInt;) s
5 516 M
(            //) s
5 505 M
(            // build an array of the values to select from) s
5 494 M
(            val values:Array[Int] = new Array[Int]\(args.length-1\);) s
5 483 M
(            print\("Selecting element "+which+" from amongst the values "\)) s
5 472 M
(            for \(i <- 1 until args.length\) {) s
5 461 M
(                  print\(args\(i\)+\(if \(i<args.length-1\) {","} else {""}\)\);) s
5 450 M
(                  values\(i-1\) = args\(i\).toInt;) s
5 439 M
(            }) s
5 428 M
(            println\(\);) s
5 406 M
(            println\("==> "+ select\(which,values\)\);  // actually runs the SELECT function) s
5 395 M
(            ) s
5 384 M
(      }) s
5 373 M
(}) s
5 351 M
(      ) s
_R
S
%%Page: (1) 4
%%BeginPageSetup
_S
18 36 translate
/pagenum 1 def
/fname (test_hw3.txt) def
/fdir (.) def
/ftail (test_hw3.txt) def
% User defined strings:
/fmodstr (Wed Feb 27 17:19:18 2013) def
/pagenumstr (1) def
/user_header_p false def
/user_footer_p false def
%%EndPageSetup
do_header
5 692 M
(Selecting element 6 from amongst the values 4,2,8,7,3,1,2,2,7,9,4) s
5 681 M
(==> 4) s
5 670 M
(Selecting element 8 from amongst the values 4,2,8,7,3,1,2,2,7,9,4) s
5 659 M
(==> 7) s
5 648 M
(Selecting element 0 from amongst the values 4,2,8,7,3,1,2,2,7,9,4) s
5 637 M
(==> 1) s
5 626 M
(Selecting element 1 from amongst the values 0,0,0,0) s
5 615 M
(==> 0) s
5 604 M
(Selecting element 3 from amongst the values 0,0,1,0) s
5 593 M
(==> 1) s
5 582 M
(Selecting element 0 from amongst the values 0,0,0,0) s
5 571 M
(==> 0) s
5 560 M
(An error:) s
5 549 M
(Selecting element -1 from amongst the values 3,4,5) s
5 538 M
(Another error:) s
5 527 M
(Selecting element 0 from amongst the values ) s
_R
S
%%Trailer
%%Pages: 4
%%DocumentNeededResources: font Courier-Bold Courier 
%%EOF
