%!PS-Adobe-3.0
%%BoundingBox: 18 36 594 756
%%Title: Enscript Output
%%Creator: GNU Enscript 1.6.5.2
%%CreationDate: Mon Feb 18 21:29:26 2013
%%Orientation: Portrait
%%Pages: (atend)
%%DocumentMedia: Letter 612 792 0 () ()
%%DocumentNeededResources: (atend)
%%EndComments
%%BeginProlog
%%BeginResource: procset Enscript-Prolog 1.6.5 2
%
% Procedures.
%

/_S {	% save current state
  /_s save def
} def
/_R {	% restore from saved state
  _s restore
} def

/S {	% showpage protecting gstate
  gsave
  showpage
  grestore
} bind def

/MF {	% fontname newfontname -> -	make a new encoded font
  /newfontname exch def
  /fontname exch def

  /fontdict fontname findfont def
  /newfont fontdict maxlength dict def

  fontdict {
    exch
    dup /FID eq {
      % skip FID pair
      pop pop
    } {
      % copy to the new font dictionary
      exch newfont 3 1 roll put
    } ifelse
  } forall

  newfont /FontName newfontname put

  % insert only valid encoding vectors
  encoding_vector length 256 eq {
    newfont /Encoding encoding_vector put
  } if

  newfontname newfont definefont pop
} def

/MF_PS { % fontname newfontname -> -	make a new font preserving its enc
  /newfontname exch def
  /fontname exch def

  /fontdict fontname findfont def
  /newfont fontdict maxlength dict def

  fontdict {
    exch
    dup /FID eq {
      % skip FID pair
      pop pop
    } {
      % copy to the new font dictionary
      exch newfont 3 1 roll put
    } ifelse
  } forall

  newfont /FontName newfontname put

  newfontname newfont definefont pop
} def

/SF { % fontname width height -> -	set a new font
  /height exch def
  /width exch def

  findfont
  [width 0 0 height 0 0] makefont setfont
} def

/SUF { % fontname width height -> -	set a new user font
  /height exch def
  /width exch def

  /F-gs-user-font MF
  /F-gs-user-font width height SF
} def

/SUF_PS { % fontname width height -> -	set a new user font preserving its enc
  /height exch def
  /width exch def

  /F-gs-user-font MF_PS
  /F-gs-user-font width height SF
} def

/M {moveto} bind def
/s {show} bind def

/Box {	% x y w h -> -			define box path
  /d_h exch def /d_w exch def /d_y exch def /d_x exch def
  d_x d_y  moveto
  d_w 0 rlineto
  0 d_h rlineto
  d_w neg 0 rlineto
  closepath
} def

/bgs {	% x y height blskip gray str -> -	show string with bg color
  /str exch def
  /gray exch def
  /blskip exch def
  /height exch def
  /y exch def
  /x exch def

  gsave
    x y blskip sub str stringwidth pop height Box
    gray setgray
    fill
  grestore
  x y M str s
} def

/bgcs { % x y height blskip red green blue str -> -  show string with bg color
  /str exch def
  /blue exch def
  /green exch def
  /red exch def
  /blskip exch def
  /height exch def
  /y exch def
  /x exch def

  gsave
    x y blskip sub str stringwidth pop height Box
    red green blue setrgbcolor
    fill
  grestore
  x y M str s
} def

% Highlight bars.
/highlight_bars {	% nlines lineheight output_y_margin gray -> -
  gsave
    setgray
    /ymarg exch def
    /lineheight exch def
    /nlines exch def

    % This 2 is just a magic number to sync highlight lines to text.
    0 d_header_y ymarg sub 2 sub translate

    /cw d_output_w cols div def
    /nrows d_output_h ymarg 2 mul sub lineheight div cvi def

    % for each column
    0 1 cols 1 sub {
      cw mul /xp exch def

      % for each rows
      0 1 nrows 1 sub {
        /rn exch def
        rn lineheight mul neg /yp exch def
        rn nlines idiv 2 mod 0 eq {
	  % Draw highlight bar.  4 is just a magic indentation.
	  xp 4 add yp cw 8 sub lineheight neg Box fill
	} if
      } for
    } for

  grestore
} def

% Line highlight bar.
/line_highlight {	% x y width height gray -> -
  gsave
    /gray exch def
    Box gray setgray fill
  grestore
} def

% Column separator lines.
/column_lines {
  gsave
    .1 setlinewidth
    0 d_footer_h translate
    /cw d_output_w cols div def
    1 1 cols 1 sub {
      cw mul 0 moveto
      0 d_output_h rlineto stroke
    } for
  grestore
} def

% Column borders.
/column_borders {
  gsave
    .1 setlinewidth
    0 d_footer_h moveto
    0 d_output_h rlineto
    d_output_w 0 rlineto
    0 d_output_h neg rlineto
    closepath stroke
  grestore
} def

% Do the actual underlay drawing
/draw_underlay {
  ul_style 0 eq {
    ul_str true charpath stroke
  } {
    ul_str show
  } ifelse
} def

% Underlay
/underlay {	% - -> -
  gsave
    0 d_page_h translate
    d_page_h neg d_page_w atan rotate

    ul_gray setgray
    ul_font setfont
    /dw d_page_h dup mul d_page_w dup mul add sqrt def
    ul_str stringwidth pop dw exch sub 2 div ul_h_ptsize -2 div moveto
    draw_underlay
  grestore
} def

/user_underlay {	% - -> -
  gsave
    ul_x ul_y translate
    ul_angle rotate
    ul_gray setgray
    ul_font setfont
    0 0 ul_h_ptsize 2 div sub moveto
    draw_underlay
  grestore
} def

% Page prefeed
/page_prefeed {		% bool -> -
  statusdict /prefeed known {
    statusdict exch /prefeed exch put
  } {
    pop
  } ifelse
} def

% Wrapped line markers
/wrapped_line_mark {	% x y charwith charheight type -> -
  /type exch def
  /h exch def
  /w exch def
  /y exch def
  /x exch def

  type 2 eq {
    % Black boxes (like TeX does)
    gsave
      0 setlinewidth
      x w 4 div add y M
      0 h rlineto w 2 div 0 rlineto 0 h neg rlineto
      closepath fill
    grestore
  } {
    type 3 eq {
      % Small arrows
      gsave
        .2 setlinewidth
        x w 2 div add y h 2 div add M
        w 4 div 0 rlineto
        x w 4 div add y lineto stroke

        x w 4 div add w 8 div add y h 4 div add M
        x w 4 div add y lineto
	w 4 div h 8 div rlineto stroke
      grestore
    } {
      % do nothing
    } ifelse
  } ifelse
} def

% EPSF import.

/BeginEPSF {
  /b4_Inc_state save def    		% Save state for cleanup
  /dict_count countdictstack def	% Count objects on dict stack
  /op_count count 1 sub def		% Count objects on operand stack
  userdict begin
  /showpage { } def
  0 setgray 0 setlinecap
  1 setlinewidth 0 setlinejoin
  10 setmiterlimit [ ] 0 setdash newpath
  /languagelevel where {
    pop languagelevel
    1 ne {
      false setstrokeadjust false setoverprint
    } if
  } if
} bind def

/EndEPSF {
  count op_count sub { pos } repeat	% Clean up stacks
  countdictstack dict_count sub { end } repeat
  b4_Inc_state restore
} bind def

% Check PostScript language level.
/languagelevel where {
  pop /gs_languagelevel languagelevel def
} {
  /gs_languagelevel 1 def
} ifelse
%%EndResource
%%BeginResource: procset Enscript-Encoding-88591 1.6.5 2
/encoding_vector [
/.notdef      	/.notdef      	/.notdef      	/.notdef      	
/.notdef      	/.notdef      	/.notdef      	/.notdef      	
/.notdef      	/.notdef      	/.notdef      	/.notdef      	
/.notdef      	/.notdef      	/.notdef      	/.notdef      	
/.notdef      	/.notdef      	/.notdef      	/.notdef      	
/.notdef      	/.notdef      	/.notdef      	/.notdef      	
/.notdef      	/.notdef      	/.notdef      	/.notdef      	
/.notdef      	/.notdef      	/.notdef      	/.notdef      	
/space        	/exclam       	/quotedbl     	/numbersign   	
/dollar       	/percent      	/ampersand    	/quoteright   	
/parenleft    	/parenright   	/asterisk     	/plus         	
/comma        	/hyphen       	/period       	/slash        	
/zero         	/one          	/two          	/three        	
/four         	/five         	/six          	/seven        	
/eight        	/nine         	/colon        	/semicolon    	
/less         	/equal        	/greater      	/question     	
/at           	/A            	/B            	/C            	
/D            	/E            	/F            	/G            	
/H            	/I            	/J            	/K            	
/L            	/M            	/N            	/O            	
/P            	/Q            	/R            	/S            	
/T            	/U            	/V            	/W            	
/X            	/Y            	/Z            	/bracketleft  	
/backslash    	/bracketright 	/asciicircum  	/underscore   	
/quoteleft    	/a            	/b            	/c            	
/d            	/e            	/f            	/g            	
/h            	/i            	/j            	/k            	
/l            	/m            	/n            	/o            	
/p            	/q            	/r            	/s            	
/t            	/u            	/v            	/w            	
/x            	/y            	/z            	/braceleft    	
/bar          	/braceright   	/tilde        	/.notdef      	
/.notdef      	/.notdef      	/.notdef      	/.notdef      	
/.notdef      	/.notdef      	/.notdef      	/.notdef      	
/.notdef      	/.notdef      	/.notdef      	/.notdef      	
/.notdef      	/.notdef      	/.notdef      	/.notdef      	
/.notdef      	/.notdef      	/.notdef      	/.notdef      	
/.notdef      	/.notdef      	/.notdef      	/.notdef      	
/.notdef      	/.notdef      	/.notdef      	/.notdef      	
/.notdef      	/.notdef      	/.notdef      	/.notdef      	
/space        	/exclamdown   	/cent         	/sterling     	
/currency     	/yen          	/brokenbar    	/section      	
/dieresis     	/copyright    	/ordfeminine  	/guillemotleft	
/logicalnot   	/hyphen       	/registered   	/macron       	
/degree       	/plusminus    	/twosuperior  	/threesuperior	
/acute        	/mu           	/paragraph    	/bullet       	
/cedilla      	/onesuperior  	/ordmasculine 	/guillemotright	
/onequarter   	/onehalf      	/threequarters	/questiondown 	
/Agrave       	/Aacute       	/Acircumflex  	/Atilde       	
/Adieresis    	/Aring        	/AE           	/Ccedilla     	
/Egrave       	/Eacute       	/Ecircumflex  	/Edieresis    	
/Igrave       	/Iacute       	/Icircumflex  	/Idieresis    	
/Eth          	/Ntilde       	/Ograve       	/Oacute       	
/Ocircumflex  	/Otilde       	/Odieresis    	/multiply     	
/Oslash       	/Ugrave       	/Uacute       	/Ucircumflex  	
/Udieresis    	/Yacute       	/Thorn        	/germandbls   	
/agrave       	/aacute       	/acircumflex  	/atilde       	
/adieresis    	/aring        	/ae           	/ccedilla     	
/egrave       	/eacute       	/ecircumflex  	/edieresis    	
/igrave       	/iacute       	/icircumflex  	/idieresis    	
/eth          	/ntilde       	/ograve       	/oacute       	
/ocircumflex  	/otilde       	/odieresis    	/divide       	
/oslash       	/ugrave       	/uacute       	/ucircumflex  	
/udieresis    	/yacute       	/thorn        	/ydieresis    	
] def
%%EndResource
%%EndProlog
%%BeginSetup
%%IncludeResource: font Courier-Bold
%%IncludeResource: font Courier
/HFpt_w 10 def
/HFpt_h 10 def
/Courier-Bold /HF-gs-font MF
/HF /HF-gs-font findfont [HFpt_w 0 0 HFpt_h 0 0] makefont def
/Courier /F-gs-font MF
/F-gs-font 10 10 SF
/#copies 1 def
% Pagedevice definitions:
gs_languagelevel 1 gt {
  <<
    /PageSize [612 792] 
  >> setpagedevice
} if
%%BeginResource: procset Enscript-Header-simple 1.6.5 2

/do_header {	% print default simple header
  gsave
    d_header_x d_header_y HFpt_h 3 div add translate

    HF setfont
    user_header_p {
      5 0 moveto user_header_left_str show

      d_header_w user_header_center_str stringwidth pop sub 2 div
      0 moveto user_header_center_str show

      d_header_w user_header_right_str stringwidth pop sub 5 sub
      0 moveto user_header_right_str show
    } {
      5 0 moveto fname show
      45 0 rmoveto fmodstr show
      45 0 rmoveto pagenumstr show
    } ifelse

  grestore
} def
%%EndResource
/d_page_w 576 def
/d_page_h 720 def
/d_header_x 0 def
/d_header_y 705 def
/d_header_w 576 def
/d_header_h 15 def
/d_footer_x 0 def
/d_footer_y 0 def
/d_footer_w 576 def
/d_footer_h 0 def
/d_output_w 576 def
/d_output_h 705 def
/cols 1 def
%%EndSetup
%%Page: (1) 1
%%BeginPageSetup
_S
18 36 translate
/pagenum 1 def
/fname (hw3.txt) def
/fdir (.) def
/ftail (hw3.txt) def
% User defined strings:
/fmodstr (Mon Feb 18 21:28:28 2013) def
/pagenumstr (1) def
/user_header_p false def
/user_footer_p false def
%%EndPageSetup
do_header
5 681 M
(----------- ) s
5 670 M
(----------- ) s
5 659 M
(MATH    382 ) s
5 648 M
(Homework  3 ) s
5 637 M
(Due 2/20/13 ) s
5 626 M
(----------- ) s
5 615 M
(-----------) s
5 593 M
(Reading: Ch. 7 of CLRS) s
5 571 M
(Exercises:) s
5 549 M
(1. Consider the following sorting algorithm:) s
5 527 M
(TWO-THIRDS-SORT\(A,p,r\):) s
5 516 M
(----------------------) s
5 505 M
(1  if A[p] > A[r] then) s
5 494 M
(2    exchange A[p] with A[r]) s
5 483 M
(3  if p - r <= 1 then return) s
5 472 M
(4    k := floor\(\(r-p+1\)/3\)) s
5 461 M
(5    TWO-THIRDS-SORT\(A,p,r-k\)) s
5 450 M
(6    TWO-THIRDS-SORT\(A,p+k,r\)) s
5 439 M
(7    TWO-THIRDS-SORT\(A,p,r-k\)) s
5 417 M
(a\) Give a recurrence for the number of times that line 1 of) s
5 406 M
(   TWO-THIRDS-SORT executes when run on an array A[1..n], that is,) s
5 395 M
(   when TWO-THIRDS-SORT\(A,1,n\) is called on such an array A.) s
5 373 M
(b\) Solve the recurrence and give bounds on the number of times line 1) s
5 362 M
(   is executed, as a function of n.  Hint: your upper bound should be) s
5 351 M
(   some polynomial in n.) s
5 329 M
(c\) Where does this algorithm sit, in terms of running time, relative) s
5 318 M
(   to the sorting algorithms we've studied so far?  ) s
5 285 M
(2. The "i-th order statistic" of a collection of n values ) s
5 263 M
(       a_0 < a_1 < ... a_\(n-1\)) s
5 241 M
(   is i-th smallest value \(where the 0-th smallest is just the minimum) s
5 230 M
(   value.  In other words, it is just the value a_i.  ) s
5 208 M
(   Devise an algorithm SELECT\(A\) for the following:) s
5 186 M
(     Given: an i and a collection of values stored in an array A[0..n-1], ) s
5 175 M
(     Find: the i-th order statistic of the elements of A.) s
5 164 M
(   ) s
5 153 M
(   Your algorithm should not assume that A is sorted, nor should it) s
5 142 M
(   sort A.) s
5 120 M
(   You should instead give a divide-and-conquer algorithm, one that's) s
5 109 M
(   very similar to QUICKSORT.  It should PARTITION around a value, and) s
5 98 M
(   recusrively SELECT from the appropriate portion of the partitioned) s
5 87 M
(   array.) s
5 65 M
(   a\) Give the pseudocode for the algorithm.) s
5 54 M
(   b\) Give Scala code for your algorithm.  It should have the definition) s
5 32 M
(        object hw3 {) s
5 21 M
(          def select\(i:Int, a:Array[Int]\) : Int = { ... }) s
5 10 M
(        } ) s
_R
S
%%Page: (2) 2
%%BeginPageSetup
_S
18 36 translate
/pagenum 2 def
/fname (hw3.txt) def
/fdir (.) def
/ftail (hw3.txt) def
% User defined strings:
/fmodstr (Mon Feb 18 21:28:28 2013) def
/pagenumstr (2) def
/user_header_p false def
/user_footer_p false def
%%EndPageSetup
do_header
5 681 M
(      and be placed in a file called hw3.scala.  I have provided a template) s
5 670 M
(      for this file on AFS in the same folder as this assignment text.) s
5 648 M
(   c\) What is the running time of the algorithm, as a function of n,) s
5 637 M
(      in the case where partition always divides the array elements into) s
5 626 M
(      equal-sized groups?) s
5 593 M
(3. CLRS exercise 7-4) s
5 560 M
(4. The Nozama Corporation has recently developed a data center for) s
5 549 M
(   handling all the web traffic for its customer transactions, where) s
5 538 M
(   each transaction involves finding an "e-needle" in an "e-haystack".) s
5 527 M
(   Here's how it works:) s
5 505 M
(   Any customer request, say, of a haystack of size n, gets sent) s
5 494 M
(   to a randomly chosen machine within the data center.  When it) s
5 483 M
(   receives a haystack of size n, it divides that haystack into) s
5 472 M
(   sqrt\(n\) stacks each of size sqrt\(n\) and sends those sqrt\(n\) smaller) s
5 461 M
(   requests to sqrt\(n\) inactive machines.  When each of those machines) s
5 450 M
(   receives such a request, it does the same division of labor.  That) s
5 439 M
(   is, it divides that sqrt\(n\)-sized haystack into sqrt\(sqrt\(n\)\)) s
5 428 M
(   stacks of size sqrt\(sqrt\(n\)\) and sends those requests to) s
5 417 M
(   sqrt\(sqrt\(n\)\) inactive machines.  This "divide and conquer" request) s
5 406 M
(   management scheme terminates when a machine receives an e-haystack) s
5 395 M
(   of size 2, and the machine with the 2-pile containing the e-needle) s
5 384 M
(   responds to the customer.) s
5 362 M
(   a\) Assuming that the time divide up the request and forward it to) s
5 351 M
(   some number of machines always takes 1 millisecond, and that a) s
5 340 M
(   machine facing an e-needle-containing e-haystack of size two and) s
5 329 M
(   reply to the customer in 1 millisecond, how many miliseconds does) s
5 318 M
(   the data center take to reply to a request of size n?  Give a) s
5 307 M
(   recurrence and solve the recurrence.  You can choose a family of) s
5 296 M
(   sizes that is convenient for your recurrence.  ) s
5 274 M
(   b\) BONUS: How many machines get enlisted to tackle a request of) s
5 263 M
(   size n?) s
_R
S
%%Trailer
%%Pages: 2
%%DocumentNeededResources: font Courier-Bold Courier 
%%EOF
